# 3ds Max Wavefront OBJ Exporter v0.97b - (c)2007 guruware
# File Created: 15.12.2013 01:35:47

mtllib cactus.mtl

#
# object Cylinder012
#

v  -0.0555 0.7228 -0.1151
v  -0.0317 0.7236 -0.1529
v  -0.0386 0.7399 -0.1524
v  -0.0584 0.7392 -0.1209
v  -0.0603 0.7227 -0.1872
v  -0.0624 0.7391 -0.1810
v  -0.1017 0.7213 -0.1706
v  -0.0969 0.7380 -0.1672
v  -0.0988 0.7213 -0.1260
v  -0.0945 0.7380 -0.1301
v  -0.0705 0.7482 -0.1503
v  -0.0491 0.5263 -0.1158
v  -0.0254 0.5226 -0.1542
v  -0.0534 0.5144 -0.1878
v  -0.0948 0.5130 -0.1712
v  -0.0924 0.5203 -0.1274
v  -0.0193 0.5036 -0.1407
v  -0.0376 0.4647 -0.1526
v  -0.0791 0.4633 -0.1361
v  -0.0864 0.5013 -0.1139
v  -0.0051 0.5227 -0.0062
v  0.0290 0.4969 -0.0205
v  0.0169 0.4618 -0.0165
v  -0.0245 0.4604 0.0000
v  -0.0381 0.4946 0.0063
# 25 vertices

vn 0.3595 0.1800 0.9156
vn 0.9769 0.2040 -0.0642
vn 0.7283 0.6835 -0.0487
vn 0.2570 0.6664 0.6999
vn 0.2359 0.1816 -0.9547
vn 0.1625 0.6655 -0.7285
vn -0.8389 0.1444 -0.5247
vn -0.6586 0.6373 -0.4001
vn -0.7620 0.1434 0.6315
vn -0.6001 0.6379 0.4826
vn -0.0337 0.9994 0.0016
vn 0.2343 0.7140 0.6597
vn 0.9769 0.0755 -0.1997
vn 0.2086 -0.2559 -0.9439
vn -0.7860 -0.2897 -0.5462
vn -0.8478 0.0141 0.5301
vn 0.9366 0.1643 -0.3094
vn 0.3624 -0.7458 -0.5589
vn -0.6032 -0.7791 -0.1707
vn -0.8966 0.0992 0.4315
vn -0.0201 0.9985 0.0501
vn 0.8946 0.2945 -0.3361
vn 0.5398 -0.8087 -0.2336
vn -0.5081 -0.8424 0.1793
vn -0.9004 0.2351 0.3660
# 25 vertex normals

vt -0.3978 1.0741 0.0000
vt -0.0008 1.0741 0.0000
vt -0.0008 1.2396 0.0000
vt -0.3978 1.2396 0.0000
vt 0.3963 1.0741 0.0000
vt 0.3963 1.2396 0.0000
vt 0.3896 1.0741 0.0000
vt 0.7973 1.0741 0.0000
vt 0.7973 1.2396 0.0000
vt 0.3918 1.2396 0.0000
vt 1.1960 1.0741 0.0000
vt 1.1960 1.2396 0.0000
vt 1.5947 1.0741 0.0000
vt 1.5947 1.2396 0.0000
vt -0.3958 0.9827 0.0000
vt -0.0010 0.9827 0.0000
vt -0.1392 0.7260 0.0000
vt 0.3942 0.9827 0.0000
vt 0.2191 0.7491 0.0000
vt 0.3935 0.9864 0.0000
vt 0.8026 0.9864 0.0000
vt 0.5952 0.8237 0.0000
vt 1.1972 0.9864 0.0000
vt 1.0450 0.8194 0.0000
vt 1.5947 0.9864 0.0000
vt 1.3853 0.8237 0.0000
vt 0.0035 0.8192 0.0000
vt -0.3944 0.8192 0.0000
vt -0.3944 0.5108 0.0000
vt 0.0035 0.5108 0.0000
vt 0.3952 0.8192 0.0000
vt -0.0027 0.8192 0.0000
vt -0.0027 0.5108 0.0000
vt 0.3952 0.5108 0.0000
vt 0.8021 0.8192 0.0000
vt 0.8021 0.5108 0.0000
vt 1.2000 0.8192 0.0000
vt 1.2000 0.5108 0.0000
vt 1.5979 0.8192 0.0000
vt 1.5979 0.5108 0.0000
vt -0.3944 0.3618 0.0000
vt 0.0035 0.3618 0.0000
vt -0.0027 0.3618 0.0000
vt 0.3952 0.3618 0.0000
vt 0.8021 0.3618 0.0000
vt 1.2000 0.3618 0.0000
vt -0.3944 0.0384 0.0000
vt 0.0035 0.0384 0.0000
vt -0.0027 0.0384 0.0000
vt 0.3952 0.0384 0.0000
vt 0.8021 0.0384 0.0000
vt 1.2000 0.0384 0.0000
vt 1.5979 0.0384 0.0000
vt 1.5979 0.3618 0.0000
# 54 texture coords

g Cylinder012
usemtl cactus
f 1/1/1 2/2/2 3/3/3 
f 3/3/3 4/4/4 1/1/1 
f 2/2/2 5/5/5 6/6/6 
f 6/6/6 3/3/3 2/2/2 
f 5/7/5 7/8/7 8/9/8 
f 8/9/8 6/10/6 5/7/5 
f 7/8/7 9/11/9 10/12/10 
f 10/12/10 8/9/8 7/8/7 
f 9/11/9 1/13/1 4/14/4 
f 4/14/4 10/12/10 9/11/9 
f 4/15/4 3/16/3 11/17/11 
f 3/16/3 6/18/6 11/19/11 
f 6/20/6 8/21/8 11/22/11 
f 8/21/8 10/23/10 11/24/11 
f 10/23/10 4/25/4 11/26/11 
f 2/27/2 1/28/1 12/29/12 
f 12/29/12 13/30/13 2/27/2 
f 5/31/5 2/32/2 13/33/13 
f 13/33/13 14/34/14 5/31/5 
f 7/35/7 5/31/5 14/34/14 
f 14/34/14 15/36/15 7/35/7 
f 9/37/9 7/35/7 15/36/15 
f 15/36/15 16/38/16 9/37/9 
f 1/39/1 9/37/9 16/38/16 
f 16/38/16 12/40/12 1/39/1 
f 12/41/12 17/42/17 13/30/13 
f 17/43/17 18/44/18 14/34/14 
f 14/34/14 13/33/13 17/43/17 
f 18/44/18 19/45/19 15/36/15 
f 15/36/15 14/34/14 18/44/18 
f 19/45/19 20/46/20 16/38/16 
f 16/38/16 15/36/15 19/45/19 
f 12/40/12 16/38/16 20/46/20 
f 21/47/21 22/48/22 17/42/17 
f 17/42/17 12/41/12 21/47/21 
f 22/49/22 23/50/23 18/44/18 
f 18/44/18 17/43/17 22/49/22 
f 23/50/23 24/51/24 19/45/19 
f 19/45/19 18/44/18 23/50/23 
f 24/51/24 25/52/25 20/46/20 
f 20/46/20 19/45/19 24/51/24 
f 25/52/25 21/53/21 12/54/12 
f 12/54/12 20/46/20 25/52/25 
# 43 faces

