# 3ds Max Wavefront OBJ Exporter v0.97b - (c)2007 guruware
# File Created: 20.12.2013 05:46:47

mtllib coalcoach1.mtl

#
# object Plane001
#

v  -0.2176 0.3401 0.3121
v  -0.2176 0.2842 0.4641
v  -0.1305 0.3144 0.3101
v  -0.1305 0.3217 0.4670
v  -0.0435 0.3046 0.3094
v  -0.0435 0.3017 0.4654
v  0.0435 0.3331 0.3128
v  0.0435 0.3096 0.4660
v  0.1305 0.3061 0.3083
v  0.1305 0.2941 0.4648
v  0.2176 0.3287 0.3112
v  0.2176 0.3463 0.4689
v  -0.2176 0.3191 0.1542
v  -0.1305 0.3319 0.1552
v  -0.0435 0.3386 0.1557
v  0.0435 0.3309 0.1551
v  0.1305 0.3577 0.1572
v  0.2176 0.3389 0.1557
v  -0.2176 0.3528 0.0005
v  -0.1305 0.3616 0.0012
v  -0.0435 0.3467 0.0000
v  0.0435 0.3438 -0.0002
v  0.1305 0.3553 0.0007
v  0.2176 0.3614 0.0012
v  -0.2176 0.3788 -0.1538
v  -0.1305 0.3427 -0.1566
v  -0.0435 0.3678 -0.1546
v  0.0435 0.3639 -0.1549
v  0.1305 0.3662 -0.1548
v  0.2176 0.3606 -0.1552
v  -0.2176 0.3603 -0.3115
v  -0.1305 0.3755 -0.3103
v  -0.0435 0.4071 -0.3079
v  0.0435 0.3980 -0.3086
v  0.1305 0.3851 -0.3096
v  0.2176 0.3875 -0.3094
v  -0.2176 0.3685 -0.4672
v  -0.1305 0.3716 -0.4669
v  -0.0435 0.3932 -0.4653
v  0.0435 0.3920 -0.4654
v  0.1305 0.3720 -0.4669
v  0.2176 0.3609 -0.4678
# 42 vertices

vn 0.2138 0.9597 0.1825
vn -0.1851 0.9788 0.0874
vn 0.1267 0.9850 0.1173
vn -0.1060 0.9941 -0.0242
vn -0.0601 0.9958 0.0687
vn 0.0298 0.9976 0.0632
vn -0.0361 0.9937 0.1057
vn 0.0652 0.9898 0.1264
vn 0.0500 0.9844 0.1688
vn -0.1340 0.9908 0.0184
vn -0.3025 0.9524 0.0377
vn -0.5091 0.8553 -0.0958
vn -0.1388 0.9898 0.0335
vn -0.0562 0.9947 0.0862
vn 0.0163 0.9924 0.1219
vn -0.1248 0.9905 0.0581
vn -0.0182 0.9919 0.1255
vn 0.1357 0.9719 0.1926
vn -0.0174 0.9954 0.0943
vn -0.0062 0.9965 0.0829
vn 0.0824 0.9899 0.1154
vn -0.0360 0.9952 0.0908
vn -0.1042 0.9941 0.0308
vn -0.0233 0.9996 0.0156
vn 0.2989 0.9459 0.1261
vn 0.0109 0.9951 0.0987
vn -0.0777 0.9864 0.1445
vn 0.0223 0.9872 0.1578
vn 0.0031 0.9934 0.1143
vn 0.0431 0.9931 0.1090
vn -0.1483 0.9873 -0.0566
vn -0.2054 0.9783 0.0253
vn -0.1211 0.9892 0.0831
vn 0.1274 0.9880 0.0875
vn 0.0583 0.9981 0.0209
vn -0.0129 0.9998 -0.0141
vn -0.0352 0.9980 0.0525
vn -0.1604 0.9871 0.0018
vn -0.1334 0.9888 -0.0665
vn 0.1346 0.9894 -0.0548
vn 0.1611 0.9846 -0.0676
vn 0.0761 0.9910 -0.1097
# 42 vertex normals

vt 0.0693 0.1451 0.0000
vt 0.0693 0.1009 0.0000
vt 0.0856 0.1451 0.0000
vt 0.0856 0.1009 0.0000
vt 0.1019 0.1451 0.0000
vt 0.1019 0.1009 0.0000
vt 0.1182 0.1451 0.0000
vt 0.1182 0.1009 0.0000
vt 0.1345 0.1451 0.0000
vt 0.1345 0.1009 0.0000
vt 0.1508 0.1451 0.0000
vt 0.1508 0.1009 0.0000
vt 0.0693 0.1894 0.0000
vt 0.0856 0.1894 0.0000
vt 0.1019 0.1894 0.0000
vt 0.1182 0.1894 0.0000
vt 0.1345 0.1894 0.0000
vt 0.1508 0.1894 0.0000
vt 0.0693 0.2336 0.0000
vt 0.0856 0.2336 0.0000
vt 0.1019 0.2336 0.0000
vt 0.1182 0.2336 0.0000
vt 0.1345 0.2336 0.0000
vt 0.1508 0.2336 0.0000
vt 0.0693 0.2778 0.0000
vt 0.0856 0.2778 0.0000
vt 0.1019 0.2778 0.0000
vt 0.1182 0.2778 0.0000
vt 0.1345 0.2778 0.0000
vt 0.1508 0.2778 0.0000
vt 0.0693 0.3220 0.0000
vt 0.0856 0.3220 0.0000
vt 0.1019 0.3220 0.0000
vt 0.1182 0.3220 0.0000
vt 0.1345 0.3220 0.0000
vt 0.1508 0.3220 0.0000
vt 0.0693 0.3662 0.0000
vt 0.0856 0.3662 0.0000
vt 0.1019 0.3662 0.0000
vt 0.1182 0.3662 0.0000
vt 0.1345 0.3662 0.0000
vt 0.1508 0.3662 0.0000
# 42 texture coords

g Plane001
usemtl coach
f 1/1/1 2/2/2 3/3/3 
f 4/4/4 3/3/3 2/2/2 
f 3/3/3 4/4/4 5/5/5 
f 6/6/6 5/5/5 4/4/4 
f 5/5/5 6/6/6 7/7/7 
f 8/8/8 7/7/7 6/6/6 
f 7/7/7 8/8/8 9/9/9 
f 10/10/10 9/9/9 8/8/8 
f 9/9/9 10/10/10 11/11/11 
f 12/12/12 11/11/11 10/10/10 
f 13/13/13 1/1/1 14/14/14 
f 3/3/3 14/14/14 1/1/1 
f 14/14/14 3/3/3 15/15/15 
f 5/5/5 15/15/15 3/3/3 
f 15/15/15 5/5/5 16/16/16 
f 7/7/7 16/16/16 5/5/5 
f 16/16/16 7/7/7 17/17/17 
f 9/9/9 17/17/17 7/7/7 
f 17/17/17 9/9/9 18/18/18 
f 11/11/11 18/18/18 9/9/9 
f 19/19/19 13/13/13 20/20/20 
f 14/14/14 20/20/20 13/13/13 
f 20/20/20 14/14/14 21/21/21 
f 15/15/15 21/21/21 14/14/14 
f 21/21/21 15/15/15 22/22/22 
f 16/16/16 22/22/22 15/15/15 
f 22/22/22 16/16/16 23/23/23 
f 17/17/17 23/23/23 16/16/16 
f 23/23/23 17/17/17 24/24/24 
f 18/18/18 24/24/24 17/17/17 
f 25/25/25 19/19/19 26/26/26 
f 20/20/20 26/26/26 19/19/19 
f 26/26/26 20/20/20 27/27/27 
f 21/21/21 27/27/27 20/20/20 
f 27/27/27 21/21/21 28/28/28 
f 22/22/22 28/28/28 21/21/21 
f 28/28/28 22/22/22 29/29/29 
f 23/23/23 29/29/29 22/22/22 
f 29/29/29 23/23/23 30/30/30 
f 24/24/24 30/30/30 23/23/23 
f 31/31/31 25/25/25 32/32/32 
f 26/26/26 32/32/32 25/25/25 
f 32/32/32 26/26/26 33/33/33 
f 27/27/27 33/33/33 26/26/26 
f 33/33/33 27/27/27 34/34/34 
f 28/28/28 34/34/34 27/27/27 
f 34/34/34 28/28/28 35/35/35 
f 29/29/29 35/35/35 28/28/28 
f 35/35/35 29/29/29 36/36/36 
f 30/30/30 36/36/36 29/29/29 
f 37/37/37 31/31/31 38/38/38 
f 32/32/32 38/38/38 31/31/31 
f 38/38/38 32/32/32 39/39/39 
f 33/33/33 39/39/39 32/32/32 
f 39/39/39 33/33/33 40/40/40 
f 34/34/34 40/40/40 33/33/33 
f 40/40/40 34/34/34 41/41/41 
f 35/35/35 41/41/41 34/34/34 
f 41/41/41 35/35/35 42/42/42 
f 36/36/36 42/42/42 35/35/35 
# 60 faces

