# 3ds Max Wavefront OBJ Exporter v0.97b - (c)2007 guruware
# File Created: 16.11.2013 05:52:03

mtllib track.mtl

#
# object track
#

v  0.1241 -0.0957 -0.5000
v  0.1241 -0.0028 -0.5000
v  0.1559 -0.0028 -0.5000
v  0.1241 -0.0028 0.5000
v  0.1559 -0.0028 0.5000
v  0.1241 -0.0957 0.5000
v  0.1559 -0.0957 0.5000
v  0.1559 -0.0957 -0.5000
v  -0.1963 -0.0955 -0.3641
v  -0.1963 -0.0955 -0.4352
v  -0.1963 -0.1368 -0.3641
v  0.1963 -0.0955 -0.4352
v  0.1963 -0.1368 -0.4352
v  0.1963 -0.0955 -0.3641
v  0.1963 -0.1368 -0.3641
v  -0.1963 -0.1368 -0.4352
v  -0.1963 -0.0955 -0.1641
v  -0.1963 -0.0955 -0.2352
v  -0.1963 -0.1368 -0.1641
v  0.1963 -0.0955 -0.2352
v  -0.1963 -0.1368 -0.2352
v  0.1963 -0.0955 -0.1641
v  0.1963 -0.1368 -0.1641
v  0.1963 -0.1368 -0.2352
v  -0.1963 -0.0955 0.0359
v  -0.1963 -0.0955 -0.0352
v  -0.1963 -0.1368 0.0359
v  0.1963 -0.0955 -0.0352
v  -0.1963 -0.1368 -0.0352
v  0.1963 -0.0955 0.0359
v  0.1963 -0.1368 0.0359
v  0.1963 -0.1368 -0.0352
v  -0.1963 -0.0955 0.2359
v  -0.1963 -0.0955 0.1648
v  -0.1963 -0.1368 0.2359
v  0.1963 -0.0955 0.1648
v  -0.1963 -0.1368 0.1648
v  0.1963 -0.0955 0.2359
v  0.1963 -0.1368 0.2359
v  0.1963 -0.1368 0.1648
v  -0.1963 -0.0955 0.4359
v  -0.1963 -0.0955 0.3648
v  -0.1963 -0.1368 0.4359
v  0.1963 -0.0955 0.3648
v  0.1963 -0.1368 0.3648
v  0.1963 -0.0955 0.4359
v  0.1963 -0.1368 0.4359
v  -0.1963 -0.1368 0.3648
v  -0.1559 -0.0957 -0.5000
v  -0.1559 -0.0028 -0.5000
v  -0.1241 -0.0028 -0.5000
v  -0.1559 -0.0028 0.5000
v  -0.1241 -0.0028 0.5000
v  -0.1559 -0.0957 0.5000
v  -0.1241 -0.0957 0.5000
v  -0.1241 -0.0957 -0.5000
# 56 vertices

vn 0.0000 0.0000 -1.0000
vn 0.0000 1.0000 -0.0000
vn 0.0000 0.0000 1.0000
vn 1.0000 0.0000 -0.0000
vn -1.0000 0.0000 -0.0000
# 5 vertex normals

vt 0.5407 0.3794 0.0000
vt 0.5407 0.4929 0.0000
vt 0.4996 0.4929 0.0000
vt 0.2207 0.5233 0.0000
vt 0.6472 0.5233 0.0000
vt 0.6472 0.6239 0.0000
vt 0.4996 0.3794 0.0000
vt 0.6415 0.3807 0.0000
vt 0.6415 0.4930 0.0000
vt 0.2220 0.4930 0.0000
vt 0.6415 0.4929 0.0000
vt 0.2220 0.3807 0.0000
vt 0.2207 0.6239 0.0000
vt 0.2220 0.4929 0.0000
vt 0.2047 0.7545 0.0000
vt 0.6742 0.7545 0.0000
vt 0.2047 0.8839 0.0000
vt 0.6742 0.8839 0.0000
vt 0.1997 0.8815 0.0000
vt 0.1997 0.7545 0.0000
vt 0.6842 0.7545 0.0000
vt 0.6842 0.8815 0.0000
# 22 texture coords

g track
usemtl Material__25
f 1/1/1 2/2/1 3/3/1 
f 2/4/2 4/5/2 5/6/2 
f 4/3/3 6/7/3 7/1/3 
f 8/8/4 3/9/4 5/10/4 
f 6/8/5 4/11/5 1/12/5 
f 8/7/1 1/1/1 3/3/1 
f 3/13/2 2/4/2 5/6/2 
f 5/2/3 4/3/3 7/1/3 
f 7/12/4 8/8/4 5/10/4 
f 4/11/5 2/14/5 1/12/5 
f 9/15/5 10/16/5 11/17/5 
f 10/15/1 12/16/1 13/18/1 
f 12/15/4 14/16/4 15/18/4 
f 14/15/3 9/16/3 11/18/3 
f 14/19/2 12/20/2 10/21/2 
f 10/16/5 16/18/5 11/17/5 
f 16/17/1 10/15/1 13/18/1 
f 13/17/4 12/15/4 15/18/4 
f 15/17/3 14/15/3 11/18/3 
f 9/22/2 14/19/2 10/21/2 
f 17/15/5 18/16/5 19/17/5 
f 18/15/1 20/16/1 21/17/1 
f 20/15/4 22/16/4 23/18/4 
f 22/15/3 17/16/3 19/18/3 
f 22/19/2 20/20/2 18/21/2 
f 18/16/5 21/18/5 19/17/5 
f 20/16/1 24/18/1 21/17/1 
f 24/17/4 20/15/4 23/18/4 
f 23/17/3 22/15/3 19/18/3 
f 17/22/2 22/19/2 18/21/2 
f 25/15/5 26/16/5 27/17/5 
f 26/15/1 28/16/1 29/17/1 
f 28/15/4 30/16/4 31/18/4 
f 30/15/3 25/16/3 27/18/3 
f 30/19/2 28/20/2 26/21/2 
f 26/16/5 29/18/5 27/17/5 
f 28/16/1 32/18/1 29/17/1 
f 32/17/4 28/15/4 31/18/4 
f 31/17/3 30/15/3 27/18/3 
f 25/22/2 30/19/2 26/21/2 
f 33/15/5 34/16/5 35/17/5 
f 34/15/1 36/16/1 37/17/1 
f 36/15/4 38/16/4 39/18/4 
f 38/15/3 33/16/3 35/18/3 
f 38/19/2 36/20/2 34/21/2 
f 34/16/5 37/18/5 35/17/5 
f 36/16/1 40/18/1 37/17/1 
f 40/17/4 36/15/4 39/18/4 
f 39/17/3 38/15/3 35/18/3 
f 33/22/2 38/19/2 34/21/2 
f 41/15/5 42/16/5 43/17/5 
f 42/15/1 44/16/1 45/18/1 
f 44/15/4 46/16/4 47/18/4 
f 46/15/3 41/16/3 43/18/3 
f 46/19/2 44/20/2 42/21/2 
f 42/16/5 48/18/5 43/17/5 
f 48/17/1 42/15/1 45/18/1 
f 45/17/4 44/15/4 47/18/4 
f 47/17/3 46/15/3 43/18/3 
f 41/22/2 46/19/2 42/21/2 
f 49/1/1 50/2/1 51/3/1 
f 50/4/2 52/5/2 53/6/2 
f 52/3/3 54/7/3 55/1/3 
f 56/8/4 51/9/4 53/10/4 
f 54/8/5 52/11/5 49/12/5 
f 56/7/1 49/1/1 51/3/1 
f 51/13/2 50/4/2 53/6/2 
f 53/2/3 52/3/3 55/1/3 
f 55/12/4 56/8/4 53/10/4 
f 52/11/5 50/14/5 49/12/5 
# 70 faces

