# 3ds Max Wavefront OBJ Exporter v0.97b - (c)2007 guruware
# File Created: 22.11.2013 07:41:04

mtllib track_x_cross.mtl

#
# object track001
#

v  -0.3641 -0.0955 0.1963
v  -0.4352 -0.0955 0.1963
v  -0.3641 -0.1368 0.1963
v  -0.4352 -0.0955 -0.1963
v  -0.4352 -0.1368 -0.1963
v  -0.3641 -0.0955 -0.1963
v  -0.3641 -0.1368 -0.1963
v  -0.4352 -0.1368 0.1963
v  0.4359 -0.0955 0.1963
v  0.3648 -0.0955 0.1963
v  0.4359 -0.1368 0.1963
v  0.3648 -0.0955 -0.1963
v  0.3648 -0.1368 -0.1963
v  0.4359 -0.0955 -0.1963
v  0.4359 -0.1368 -0.1963
v  0.3648 -0.1368 0.1963
v  -0.5000 -0.0957 0.1559
v  -0.5000 -0.0028 0.1559
v  -0.5000 -0.0028 0.1241
v  -0.1559 -0.0028 0.1559
v  -0.1241 -0.0028 0.1241
v  -0.1559 -0.0957 0.1559
v  -0.1241 -0.0957 0.1241
v  -0.5000 -0.0957 0.1241
v  -0.1963 -0.0955 -0.3641
v  -0.1963 -0.0955 -0.4352
v  -0.1963 -0.1368 -0.3641
v  0.1963 -0.0955 -0.4352
v  0.1963 -0.1368 -0.4352
v  0.1963 -0.0955 -0.3641
v  0.1963 -0.1368 -0.3641
v  -0.1963 -0.1368 -0.4352
v  -0.1963 -0.0955 0.4359
v  -0.1963 -0.0955 0.3648
v  -0.1963 -0.1368 0.4359
v  0.1963 -0.0955 0.3648
v  0.1963 -0.1368 0.3648
v  0.1963 -0.0955 0.4359
v  0.1963 -0.1368 0.4359
v  -0.1963 -0.1368 0.3648
v  -0.1559 -0.0028 0.5000
v  -0.1241 -0.0028 0.5000
v  -0.1559 -0.0957 0.5000
v  -0.1241 -0.0957 0.5000
v  0.5000 -0.0957 -0.1559
v  0.5000 -0.0028 -0.1559
v  0.5000 -0.0028 -0.1241
v  0.1559 -0.0028 -0.1559
v  0.1241 -0.0028 -0.1241
v  0.1559 -0.0957 -0.1559
v  0.1241 -0.0957 -0.1241
v  0.5000 -0.0957 -0.1241
v  0.1559 -0.0028 -0.5000
v  0.1241 -0.0028 -0.5000
v  0.1559 -0.0957 -0.5000
v  0.1241 -0.0957 -0.5000
v  0.1559 -0.0957 0.5000
v  0.1559 -0.0028 0.5000
v  0.1241 -0.0028 0.5000
v  0.1559 -0.0028 0.1559
v  0.1241 -0.0028 0.1241
v  0.1559 -0.0957 0.1559
v  0.1241 -0.0957 0.1241
v  0.1241 -0.0957 0.5000
v  0.5000 -0.0028 0.1559
v  0.5000 -0.0028 0.1241
v  0.5000 -0.0957 0.1559
v  0.5000 -0.0957 0.1241
v  -0.1559 -0.0957 -0.1559
v  -0.1559 -0.0028 -0.1559
v  -0.1241 -0.0028 -0.1241
v  -0.5000 -0.0028 -0.1559
v  -0.5000 -0.0028 -0.1241
v  -0.5000 -0.0957 -0.1559
v  -0.5000 -0.0957 -0.1241
v  -0.1241 -0.0957 -0.1241
v  -0.0197 -0.0955 0.3316
v  -0.0834 -0.0955 0.2679
v  -0.0197 -0.1368 0.3316
v  0.2679 -0.0955 -0.0834
v  -0.0834 -0.1368 0.2679
v  0.3316 -0.0955 -0.0197
v  0.3316 -0.1368 -0.0197
v  0.2679 -0.1368 -0.0834
v  0.1559 -0.0957 0.1000
v  0.1559 -0.0028 0.1000
v  0.1241 -0.0028 0.1000
v  0.1559 -0.0028 -0.1000
v  0.1241 -0.0028 -0.1000
v  0.1559 -0.0957 -0.1000
v  0.1241 -0.0957 -0.1000
v  0.1241 -0.0957 0.1000
v  -0.1438 -0.0955 0.2075
v  -0.2075 -0.0955 0.1438
v  -0.1438 -0.1368 0.2075
v  0.1438 -0.0955 -0.2075
v  -0.2075 -0.1368 0.1438
v  0.2075 -0.0955 -0.1438
v  0.2075 -0.1368 -0.1438
v  0.1438 -0.1368 -0.2075
v  0.1000 -0.0957 -0.1559
v  0.1000 -0.0028 -0.1559
v  0.1000 -0.0028 -0.1241
v  -0.1000 -0.0028 -0.1559
v  -0.1000 -0.0028 -0.1241
v  -0.1000 -0.0957 -0.1559
v  -0.1000 -0.0957 -0.1241
v  0.1000 -0.0957 -0.1241
v  -0.1559 -0.0957 -0.5000
v  -0.1559 -0.0028 -0.5000
v  -0.1241 -0.0028 -0.5000
v  -0.1241 -0.0957 -0.5000
v  -0.1559 -0.0957 -0.1000
v  -0.1559 -0.0028 -0.1000
v  -0.1241 -0.0028 -0.1000
v  -0.1559 -0.0028 0.1000
v  -0.1241 -0.0028 0.1000
v  -0.1559 -0.0957 0.1000
v  -0.1241 -0.0957 0.1000
v  -0.1241 -0.0957 -0.1000
v  -0.2679 -0.0955 0.0834
v  -0.3316 -0.0955 0.0197
v  -0.2679 -0.1368 0.0834
v  0.0197 -0.0955 -0.3316
v  -0.3316 -0.1368 0.0197
v  0.0834 -0.0955 -0.2679
v  0.0834 -0.1368 -0.2679
v  0.0197 -0.1368 -0.3316
v  -0.1000 -0.0957 0.1559
v  -0.1000 -0.0028 0.1559
v  -0.1000 -0.0028 0.1241
v  0.1000 -0.0028 0.1559
v  0.1000 -0.0028 0.1241
v  0.1000 -0.0957 0.1559
v  0.1000 -0.0957 0.1241
v  -0.1000 -0.0957 0.1241
# 136 vertices

vn 0.0000 0.0000 1.0000
vn -1.0000 0.0000 0.0000
vn -0.0000 0.0000 -1.0000
vn 1.0000 0.0000 -0.0000
vn 0.0000 1.0000 -0.0000
vn -0.7071 0.0000 -0.7071
vn 0.0000 1.0000 0.0000
vn -0.3827 0.0000 -0.9239
vn 0.7071 0.0000 0.7071
vn -0.0000 1.0000 -0.0000
vn -0.0000 1.0000 0.0000
vn 0.9239 0.0000 -0.3827
vn 0.7071 0.0000 -0.7071
vn -0.7071 0.0000 0.7071
vn -0.9239 0.0000 0.3827
# 15 vertex normals

vt 0.2047 0.7545 0.0000
vt 0.6742 0.7545 0.0000
vt 0.2047 0.8839 0.0000
vt 0.6742 0.8839 0.0000
vt 0.1997 0.8815 0.0000
vt 0.1997 0.7545 0.0000
vt 0.6842 0.7545 0.0000
vt 0.6842 0.8815 0.0000
vt 0.5407 0.3794 0.0000
vt 0.5407 0.4929 0.0000
vt 0.4996 0.4929 0.0000
vt 0.2207 0.5233 0.0000
vt 0.3972 0.5233 0.0000
vt 0.4366 0.6239 0.0000
vt 0.4996 0.3794 0.0000
vt 0.6415 0.3807 0.0000
vt 0.6415 0.4930 0.0000
vt 0.4381 0.4930 0.0000
vt 0.4412 0.3807 0.0000
vt 0.4412 0.4929 0.0000
vt 0.2220 0.3807 0.0000
vt 0.2207 0.6239 0.0000
vt 0.4381 0.3807 0.0000
vt 0.2220 0.4929 0.0000
vt 0.4863 0.5233 0.0000
vt 0.6472 0.5233 0.0000
vt 0.6472 0.6239 0.0000
vt 0.4382 0.3807 0.0000
vt 0.4382 0.4930 0.0000
vt 0.2220 0.4930 0.0000
vt 0.6415 0.4929 0.0000
vt 0.4364 0.5233 0.0000
# 32 texture coords

g track001
usemtl tracks
f 1/1/1 2/2/1 3/3/1 
f 2/1/2 4/2/2 5/4/2 
f 4/1/3 6/2/3 7/4/3 
f 6/1/4 1/2/4 3/4/4 
f 6/5/5 4/6/5 2/7/5 
f 2/2/1 8/4/1 3/3/1 
f 8/3/2 2/1/2 5/4/2 
f 5/3/3 4/1/3 7/4/3 
f 7/3/4 6/1/4 3/4/4 
f 1/8/5 6/5/5 2/7/5 
f 9/1/1 10/2/1 11/3/1 
f 10/1/2 12/2/2 13/4/2 
f 12/1/3 14/2/3 15/4/3 
f 14/1/4 9/2/4 11/4/4 
f 14/5/5 12/6/5 10/7/5 
f 10/2/1 16/4/1 11/3/1 
f 16/3/2 10/1/2 13/4/2 
f 13/3/3 12/1/3 15/4/3 
f 15/3/4 14/1/4 11/4/4 
f 9/8/5 14/5/5 10/7/5 
f 17/9/2 18/10/2 19/11/2 
f 18/12/5 20/13/5 21/14/5 
f 20/11/4 22/15/4 23/9/4 
f 24/16/3 19/17/3 21/18/3 
f 22/19/1 20/20/1 17/21/1 
f 24/15/2 17/9/2 19/11/2 
f 19/22/5 18/12/5 21/14/5 
f 21/10/4 20/11/4 23/9/4 
f 23/23/3 24/16/3 21/18/3 
f 20/20/1 18/24/1 17/21/1 
f 25/1/2 26/2/2 27/3/2 
f 26/1/3 28/2/3 29/4/3 
f 28/1/4 30/2/4 31/4/4 
f 30/1/1 25/2/1 27/4/1 
f 30/5/5 28/6/5 26/7/5 
f 26/2/2 32/4/2 27/3/2 
f 32/3/3 26/1/3 29/4/3 
f 29/3/4 28/1/4 31/4/4 
f 31/3/1 30/1/1 27/4/1 
f 25/8/5 30/5/5 26/7/5 
f 33/1/2 34/2/2 35/3/2 
f 34/1/3 36/2/3 37/4/3 
f 36/1/4 38/2/4 39/4/4 
f 38/1/1 33/2/1 35/4/1 
f 38/5/5 36/6/5 34/7/5 
f 34/2/2 40/4/2 35/3/2 
f 40/3/3 34/1/3 37/4/3 
f 37/3/4 36/1/4 39/4/4 
f 39/3/1 38/1/1 35/4/1 
f 33/8/5 38/5/5 34/7/5 
f 22/9/6 20/10/6 21/11/6 
f 20/25/7 41/26/7 42/27/7 
f 41/11/1 43/15/1 44/9/1 
f 23/28/4 21/29/4 42/30/4 
f 43/16/2 41/31/2 22/19/2 
f 23/15/6 22/9/6 21/11/6 
f 21/14/7 20/25/7 42/27/7 
f 42/10/1 41/11/1 44/9/1 
f 44/21/4 23/28/4 42/30/4 
f 41/31/2 20/20/2 22/19/2 
f 45/9/4 46/10/4 47/11/4 
f 46/12/7 48/13/7 49/14/7 
f 48/11/8 50/15/8 51/9/6 
f 52/16/1 47/17/1 49/18/1 
f 50/19/8 48/20/8 45/21/3 
f 52/15/4 45/9/4 47/11/4 
f 47/22/5 46/12/7 49/14/7 
f 49/10/6 48/11/8 51/9/6 
f 51/23/1 52/16/1 49/18/1 
f 48/20/8 46/24/3 45/21/3 
f 50/9/9 48/10/9 49/11/9 
f 48/25/10 53/26/10 54/27/10 
f 53/11/3 55/15/3 56/9/3 
f 51/28/2 49/29/2 54/30/2 
f 55/16/4 53/31/4 50/19/4 
f 51/15/9 50/9/9 49/11/9 
f 49/14/10 48/25/10 54/27/10 
f 54/10/3 53/11/3 56/9/3 
f 56/21/2 51/28/2 54/30/2 
f 53/31/4 48/20/4 50/19/4 
f 57/9/1 58/10/1 59/11/1 
f 58/12/11 60/13/11 61/14/11 
f 60/11/12 62/15/12 63/9/13 
f 64/16/2 59/17/2 61/18/2 
f 62/19/12 60/20/12 57/21/4 
f 64/15/1 57/9/1 59/11/1 
f 59/22/7 58/12/11 61/14/11 
f 61/10/13 60/11/12 63/9/13 
f 63/23/2 64/16/2 61/18/2 
f 60/20/12 58/24/4 57/21/4 
f 62/9/14 60/10/14 61/11/14 
f 60/25/5 65/26/5 66/27/5 
f 65/11/4 67/15/4 68/9/4 
f 63/28/3 61/29/3 66/30/3 
f 67/16/1 65/31/1 62/19/1 
f 63/15/14 62/9/14 61/11/14 
f 61/14/5 60/25/5 66/27/5 
f 66/10/4 65/11/4 68/9/4 
f 68/21/3 63/28/3 66/30/3 
f 65/31/1 60/20/1 62/19/1 
f 69/9/13 70/10/13 71/11/13 
f 70/25/11 72/26/11 73/27/11 
f 72/11/2 74/15/2 75/9/2 
f 76/28/1 71/29/1 73/30/1 
f 74/16/3 72/31/3 69/19/3 
f 76/15/13 69/9/13 71/11/13 
f 71/14/11 70/25/11 73/27/11 
f 73/10/2 72/11/2 75/9/2 
f 75/21/1 76/28/1 73/30/1 
f 72/31/3 70/20/3 69/19/3 
f 77/1/14 78/2/14 79/3/14 
f 78/1/6 80/2/6 81/3/6 
f 80/1/13 82/2/13 83/4/13 
f 82/1/9 77/2/9 79/4/9 
f 82/5/5 80/6/5 78/7/5 
f 78/2/14 81/4/14 79/3/14 
f 80/2/6 84/4/6 81/3/6 
f 84/3/13 80/1/13 83/4/13 
f 83/3/9 82/1/9 79/4/9 
f 77/8/5 82/5/5 78/7/5 
f 85/9/1 86/10/1 87/11/1 
f 86/12/5 88/32/5 89/14/5 
f 88/11/3 90/15/3 91/9/3 
f 92/16/2 87/17/2 89/18/2 
f 90/19/4 88/20/4 85/21/4 
f 92/15/1 85/9/1 87/11/1 
f 87/22/5 86/12/5 89/14/5 
f 89/10/3 88/11/3 91/9/3 
f 91/23/2 92/16/2 89/18/2 
f 88/20/4 86/24/4 85/21/4 
f 93/1/14 94/2/14 95/3/14 
f 94/1/6 96/2/6 97/3/6 
f 96/1/13 98/2/13 99/4/13 
f 98/1/9 93/2/9 95/4/9 
f 98/5/5 96/6/5 94/7/5 
f 94/2/14 97/4/14 95/3/14 
f 96/2/6 100/4/6 97/3/6 
f 100/3/13 96/1/13 99/4/13 
f 99/3/9 98/1/9 95/4/9 
f 93/8/5 98/5/5 94/7/5 
f 101/9/4 102/10/4 103/11/4 
f 102/12/5 104/32/5 105/14/5 
f 104/11/2 106/15/2 107/9/2 
f 108/16/1 103/17/1 105/18/1 
f 106/19/3 104/20/3 101/21/3 
f 108/15/4 101/9/4 103/11/4 
f 103/22/5 102/12/5 105/14/5 
f 105/10/2 104/11/2 107/9/2 
f 107/23/1 108/16/1 105/18/1 
f 104/20/3 102/24/3 101/21/3 
f 109/9/3 110/10/3 111/11/3 
f 110/12/5 70/13/5 71/14/5 
f 70/11/15 69/15/15 76/9/14 
f 112/16/4 111/17/4 71/18/4 
f 69/19/15 70/20/15 109/21/2 
f 112/15/3 109/9/3 111/11/3 
f 111/22/10 110/12/5 71/14/5 
f 71/10/14 70/11/15 76/9/14 
f 76/23/4 112/16/4 71/18/4 
f 70/20/15 110/24/2 109/21/2 
f 113/9/3 114/10/3 115/11/3 
f 114/12/5 116/32/5 117/14/5 
f 116/11/1 118/15/1 119/9/1 
f 120/16/4 115/17/4 117/18/4 
f 118/19/2 116/20/2 113/21/2 
f 120/15/3 113/9/3 115/11/3 
f 115/22/5 114/12/5 117/14/5 
f 117/10/1 116/11/1 119/9/1 
f 119/23/4 120/16/4 117/18/4 
f 116/20/2 114/24/2 113/21/2 
f 121/1/14 122/2/14 123/3/14 
f 122/1/6 124/2/6 125/3/6 
f 124/1/13 126/2/13 127/4/13 
f 126/1/9 121/2/9 123/4/9 
f 126/5/5 124/6/5 122/7/5 
f 122/2/14 125/4/14 123/3/14 
f 124/2/6 128/4/6 125/3/6 
f 128/3/13 124/1/13 127/4/13 
f 127/3/9 126/1/9 123/4/9 
f 121/8/5 126/5/5 122/7/5 
f 129/9/2 130/10/2 131/11/2 
f 130/12/5 132/32/5 133/14/5 
f 132/11/4 134/15/4 135/9/4 
f 136/16/3 131/17/3 133/18/3 
f 134/19/1 132/20/1 129/21/1 
f 136/15/2 129/9/2 131/11/2 
f 131/22/5 130/12/5 133/14/5 
f 133/10/4 132/11/4 135/9/4 
f 135/23/3 136/16/3 133/18/3 
f 132/20/1 130/24/1 129/21/1 
# 190 faces

#
# object Circle002
#

v  0.3912 -0.0028 0.1730
v  0.5000 -0.0028 0.1559
v  0.3799 -0.0028 0.1559
v  0.2756 -0.0028 0.1932
v  0.2966 -0.0028 0.2220
v  0.1932 -0.0028 0.2756
v  0.2220 -0.0028 0.2966
v  0.1559 -0.0028 0.3799
v  0.1730 -0.0028 0.3912
v  0.1559 -0.0028 0.5000
v  0.3912 -0.0957 0.1730
v  0.5000 -0.0957 0.1559
v  0.3799 -0.0957 0.1559
v  0.2756 -0.0957 0.1932
v  0.2966 -0.0957 0.2220
v  0.1932 -0.0957 0.2756
v  0.2220 -0.0957 0.2966
v  0.1559 -0.0957 0.3799
v  0.1730 -0.0957 0.3912
v  0.1559 -0.0957 0.5000
# 20 vertices

vn -0.0000 1.0000 0.0000
vn 0.0000 1.0000 -0.0000
vn 0.3115 0.0000 0.9502
vn 0.1554 0.0000 0.9879
vn -0.3369 -0.0000 -0.9415
vn -0.5350 -0.0000 -0.8448
vn -0.3369 0.0000 -0.9415
vn 0.5903 0.0000 0.8071
vn -0.8448 -0.0000 -0.5350
vn 0.8071 0.0000 0.5903
vn -0.9415 -0.0000 -0.3369
vn 0.9502 0.0000 0.3115
vn 0.9879 0.0000 0.1554
# 13 vertex normals

vt 0.5692 0.5616 0.0000
vt 0.6484 0.5873 0.0000
vt 0.5726 0.6175 0.0000
vt 0.4838 0.6165 0.0000
vt 0.4802 0.5240 0.0000
vt 0.3813 0.6178 0.0000
vt 0.3865 0.5244 0.0000
vt 0.2935 0.6173 0.0000
vt 0.2974 0.5617 0.0000
vt 0.2197 0.5925 0.0000
vt 0.4397 0.3795 0.0000
vt 0.3334 0.3795 0.0000
vt 0.3334 0.4923 0.0000
vt 0.4397 0.4923 0.0000
vt 0.3308 0.3795 0.0000
vt 0.4349 0.3795 0.0000
vt 0.4349 0.4925 0.0000
vt 0.3308 0.4925 0.0000
vt 0.5424 0.3795 0.0000
vt 0.5424 0.4923 0.0000
vt 0.5409 0.3795 0.0000
vt 0.5409 0.4925 0.0000
vt 0.4362 0.3795 0.0000
vt 0.4362 0.4923 0.0000
vt 0.4412 0.3795 0.0000
vt 0.4412 0.4925 0.0000
vt 0.3290 0.3795 0.0000
vt 0.3290 0.4923 0.0000
vt 0.2181 0.3795 0.0000
vt 0.2181 0.4923 0.0000
# 30 texture coords

g Circle002
usemtl tracks
f 137/33/16 138/34/17 139/35/16 
f 137/33/16 139/35/16 140/36/16 
f 141/37/16 137/33/16 140/36/16 
f 141/37/16 140/36/16 142/38/17 
f 143/39/17 141/37/16 142/38/17 
f 143/39/17 142/38/17 144/40/17 
f 145/41/17 143/39/17 144/40/17 
f 145/41/17 144/40/17 146/42/17 
f 147/43/18 148/44/19 138/45/19 
f 138/45/19 137/46/18 147/43/18 
f 149/47/20 150/48/21 140/49/21 
f 140/49/21 139/50/22 149/47/20 
f 151/51/23 147/43/18 137/46/18 
f 137/46/18 141/52/23 151/51/23 
f 150/48/21 152/53/24 142/54/24 
f 142/54/24 140/49/21 150/48/21 
f 153/55/25 151/51/23 141/52/23 
f 141/52/23 143/56/25 153/55/25 
f 152/53/24 154/57/26 144/58/26 
f 144/58/26 142/54/24 152/53/24 
f 155/59/27 153/55/25 143/56/25 
f 143/56/25 145/60/27 155/59/27 
f 156/61/28 155/59/27 145/60/27 
f 145/60/27 146/62/28 156/61/28 
# 24 faces

#
# object Circle005
#

v  0.1730 -0.0028 -0.3912
v  0.1559 -0.0028 -0.5000
v  0.1559 -0.0028 -0.3799
v  0.1932 -0.0028 -0.2756
v  0.2220 -0.0028 -0.2966
v  0.2756 -0.0028 -0.1932
v  0.2966 -0.0028 -0.2220
v  0.3799 -0.0028 -0.1559
v  0.3912 -0.0028 -0.1730
v  0.5000 -0.0028 -0.1559
v  0.1730 -0.0957 -0.3912
v  0.1559 -0.0957 -0.5000
v  0.1559 -0.0957 -0.3799
v  0.1932 -0.0957 -0.2756
v  0.2220 -0.0957 -0.2966
v  0.2756 -0.0957 -0.1932
v  0.2966 -0.0957 -0.2220
v  0.3799 -0.0957 -0.1559
v  0.3912 -0.0957 -0.1730
v  0.5000 -0.0957 -0.1559
# 20 vertices

vn 0.0000 1.0000 0.0000
vn 0.0000 1.0000 -0.0000
vn -0.0000 1.0000 -0.0000
vn 0.9502 0.0000 -0.3115
vn 0.9879 0.0000 -0.1554
vn -0.9415 -0.0000 0.3369
vn -0.8448 -0.0000 0.5350
vn -0.9415 0.0000 0.3369
vn 0.8071 0.0000 -0.5903
vn -0.5350 -0.0000 0.8448
vn 0.5903 0.0000 -0.8071
vn -0.3369 -0.0000 0.9415
vn 0.3115 0.0000 -0.9502
vn 0.1554 0.0000 -0.9879
# 14 vertex normals

vt 0.5692 0.5616 0.0000
vt 0.6484 0.5873 0.0000
vt 0.5726 0.6175 0.0000
vt 0.4838 0.6165 0.0000
vt 0.4802 0.5240 0.0000
vt 0.3813 0.6178 0.0000
vt 0.3865 0.5244 0.0000
vt 0.2935 0.6173 0.0000
vt 0.2974 0.5617 0.0000
vt 0.2197 0.5925 0.0000
vt 0.4397 0.3795 0.0000
vt 0.3334 0.3795 0.0000
vt 0.3334 0.4923 0.0000
vt 0.4397 0.4923 0.0000
vt 0.3308 0.3795 0.0000
vt 0.4349 0.3795 0.0000
vt 0.4349 0.4925 0.0000
vt 0.3308 0.4925 0.0000
vt 0.5424 0.3795 0.0000
vt 0.5424 0.4923 0.0000
vt 0.5409 0.3795 0.0000
vt 0.5409 0.4925 0.0000
vt 0.4362 0.3795 0.0000
vt 0.4362 0.4923 0.0000
vt 0.4412 0.3795 0.0000
vt 0.4412 0.4925 0.0000
vt 0.3290 0.3795 0.0000
vt 0.3290 0.4923 0.0000
vt 0.2181 0.3795 0.0000
vt 0.2181 0.4923 0.0000
# 30 texture coords

g Circle005
usemtl tracks
f 157/63/29 158/64/30 159/65/29 
f 157/63/29 159/65/29 160/66/29 
f 161/67/29 157/63/29 160/66/29 
f 161/67/29 160/66/29 162/68/31 
f 163/69/31 161/67/29 162/68/31 
f 163/69/31 162/68/31 164/70/31 
f 165/71/31 163/69/31 164/70/31 
f 165/71/31 164/70/31 166/72/30 
f 167/73/32 168/74/33 158/75/33 
f 158/75/33 157/76/32 167/73/32 
f 169/77/34 170/78/35 160/79/35 
f 160/79/35 159/80/36 169/77/34 
f 171/81/37 167/73/32 157/76/32 
f 157/76/32 161/82/37 171/81/37 
f 170/78/35 172/83/38 162/84/38 
f 162/84/38 160/79/35 170/78/35 
f 173/85/39 171/81/37 161/82/37 
f 161/82/37 163/86/39 173/85/39 
f 172/83/38 174/87/40 164/88/40 
f 164/88/40 162/84/38 172/83/38 
f 175/89/41 173/85/39 163/86/39 
f 163/86/39 165/90/41 175/89/41 
f 176/91/42 175/89/41 165/90/41 
f 165/90/41 166/92/42 176/91/42 
# 24 faces

#
# object Circle006
#

v  -0.3912 -0.0028 -0.1730
v  -0.5000 -0.0028 -0.1559
v  -0.3799 -0.0028 -0.1559
v  -0.2756 -0.0028 -0.1932
v  -0.2966 -0.0028 -0.2220
v  -0.1932 -0.0028 -0.2756
v  -0.2220 -0.0028 -0.2966
v  -0.1559 -0.0028 -0.3799
v  -0.1730 -0.0028 -0.3912
v  -0.1559 -0.0028 -0.5000
v  -0.3912 -0.0957 -0.1730
v  -0.5000 -0.0957 -0.1559
v  -0.3799 -0.0957 -0.1559
v  -0.2756 -0.0957 -0.1932
v  -0.2966 -0.0957 -0.2220
v  -0.1932 -0.0957 -0.2756
v  -0.2220 -0.0957 -0.2966
v  -0.1559 -0.0957 -0.3799
v  -0.1730 -0.0957 -0.3912
v  -0.1559 -0.0957 -0.5000
# 20 vertices

vn 0.0000 1.0000 -0.0000
vn -0.0000 1.0000 0.0000
vn -0.3115 0.0000 -0.9502
vn -0.1554 0.0000 -0.9879
vn 0.3369 -0.0000 0.9415
vn 0.5350 -0.0000 0.8448
vn 0.3369 0.0000 0.9415
vn -0.5903 0.0000 -0.8071
vn 0.8448 -0.0000 0.5350
vn -0.8071 0.0000 -0.5903
vn 0.9415 -0.0000 0.3369
vn -0.9502 0.0000 -0.3115
vn -0.9879 0.0000 -0.1554
# 13 vertex normals

vt 0.5692 0.5616 0.0000
vt 0.6484 0.5873 0.0000
vt 0.5726 0.6175 0.0000
vt 0.4838 0.6165 0.0000
vt 0.4802 0.5240 0.0000
vt 0.3813 0.6178 0.0000
vt 0.3865 0.5244 0.0000
vt 0.2935 0.6173 0.0000
vt 0.2974 0.5617 0.0000
vt 0.2197 0.5925 0.0000
vt 0.4397 0.3795 0.0000
vt 0.3334 0.3795 0.0000
vt 0.3334 0.4923 0.0000
vt 0.4397 0.4923 0.0000
vt 0.3308 0.3795 0.0000
vt 0.4349 0.3795 0.0000
vt 0.4349 0.4925 0.0000
vt 0.3308 0.4925 0.0000
vt 0.5424 0.3795 0.0000
vt 0.5424 0.4923 0.0000
vt 0.5409 0.3795 0.0000
vt 0.5409 0.4925 0.0000
vt 0.4362 0.3795 0.0000
vt 0.4362 0.4923 0.0000
vt 0.4412 0.3795 0.0000
vt 0.4412 0.4925 0.0000
vt 0.3290 0.3795 0.0000
vt 0.3290 0.4923 0.0000
vt 0.2181 0.3795 0.0000
vt 0.2181 0.4923 0.0000
# 30 texture coords

g Circle006
usemtl tracks
f 177/93/43 178/94/43 179/95/43 
f 177/93/43 179/95/43 180/96/43 
f 181/97/43 177/93/43 180/96/43 
f 181/97/43 180/96/43 182/98/44 
f 183/99/44 181/97/43 182/98/44 
f 183/99/44 182/98/44 184/100/44 
f 185/101/44 183/99/44 184/100/44 
f 185/101/44 184/100/44 186/102/43 
f 187/103/45 188/104/46 178/105/46 
f 178/105/46 177/106/45 187/103/45 
f 189/107/47 190/108/48 180/109/48 
f 180/109/48 179/110/49 189/107/47 
f 191/111/50 187/103/45 177/106/45 
f 177/106/45 181/112/50 191/111/50 
f 190/108/48 192/113/51 182/114/51 
f 182/114/51 180/109/48 190/108/48 
f 193/115/52 191/111/50 181/112/50 
f 181/112/50 183/116/52 193/115/52 
f 192/113/51 194/117/53 184/118/53 
f 184/118/53 182/114/51 192/113/51 
f 195/119/54 193/115/52 183/116/52 
f 183/116/52 185/120/54 195/119/54 
f 196/121/55 195/119/54 185/120/54 
f 185/120/54 186/122/55 196/121/55 
# 24 faces

#
# object Circle007
#

v  -0.1730 -0.0028 0.3912
v  -0.1559 -0.0028 0.5000
v  -0.1559 -0.0028 0.3799
v  -0.1932 -0.0028 0.2756
v  -0.2220 -0.0028 0.2966
v  -0.2756 -0.0028 0.1932
v  -0.2966 -0.0028 0.2220
v  -0.3799 -0.0028 0.1559
v  -0.3912 -0.0028 0.1730
v  -0.5000 -0.0028 0.1559
v  -0.1730 -0.0957 0.3912
v  -0.1559 -0.0957 0.5000
v  -0.1559 -0.0957 0.3799
v  -0.1932 -0.0957 0.2756
v  -0.2220 -0.0957 0.2966
v  -0.2756 -0.0957 0.1932
v  -0.2966 -0.0957 0.2220
v  -0.3799 -0.0957 0.1559
v  -0.3912 -0.0957 0.1730
v  -0.5000 -0.0957 0.1559
# 20 vertices

vn -0.0000 1.0000 -0.0000
vn 0.0000 1.0000 -0.0000
vn 0.0000 1.0000 0.0000
vn -0.9502 0.0000 0.3115
vn -0.9879 0.0000 0.1554
vn 0.9415 -0.0000 -0.3369
vn 0.8448 -0.0000 -0.5350
vn 0.9415 0.0000 -0.3369
vn -0.8071 0.0000 0.5903
vn 0.5350 -0.0000 -0.8448
vn -0.5903 0.0000 0.8071
vn 0.3369 -0.0000 -0.9415
vn -0.3115 0.0000 0.9502
vn -0.1554 0.0000 0.9879
# 14 vertex normals

vt 0.5692 0.5616 0.0000
vt 0.6484 0.5873 0.0000
vt 0.5726 0.6175 0.0000
vt 0.4838 0.6165 0.0000
vt 0.4802 0.5240 0.0000
vt 0.3813 0.6178 0.0000
vt 0.3865 0.5244 0.0000
vt 0.2935 0.6173 0.0000
vt 0.2974 0.5617 0.0000
vt 0.2197 0.5925 0.0000
vt 0.4397 0.3795 0.0000
vt 0.3334 0.3795 0.0000
vt 0.3334 0.4923 0.0000
vt 0.4397 0.4923 0.0000
vt 0.3308 0.3795 0.0000
vt 0.4349 0.3795 0.0000
vt 0.4349 0.4925 0.0000
vt 0.3308 0.4925 0.0000
vt 0.5424 0.3795 0.0000
vt 0.5424 0.4923 0.0000
vt 0.5409 0.3795 0.0000
vt 0.5409 0.4925 0.0000
vt 0.4362 0.3795 0.0000
vt 0.4362 0.4923 0.0000
vt 0.4412 0.3795 0.0000
vt 0.4412 0.4925 0.0000
vt 0.3290 0.3795 0.0000
vt 0.3290 0.4923 0.0000
vt 0.2181 0.3795 0.0000
vt 0.2181 0.4923 0.0000
# 30 texture coords

g Circle007
usemtl tracks
f 197/123/56 198/124/57 199/125/56 
f 197/123/56 199/125/56 200/126/56 
f 201/127/56 197/123/56 200/126/56 
f 201/127/56 200/126/56 202/128/58 
f 203/129/58 201/127/56 202/128/58 
f 203/129/58 202/128/58 204/130/58 
f 205/131/58 203/129/58 204/130/58 
f 205/131/58 204/130/58 206/132/57 
f 207/133/59 208/134/60 198/135/60 
f 198/135/60 197/136/59 207/133/59 
f 209/137/61 210/138/62 200/139/62 
f 200/139/62 199/140/63 209/137/61 
f 211/141/64 207/133/59 197/136/59 
f 197/136/59 201/142/64 211/141/64 
f 210/138/62 212/143/65 202/144/65 
f 202/144/65 200/139/62 210/138/62 
f 213/145/66 211/141/64 201/142/64 
f 201/142/64 203/146/66 213/145/66 
f 212/143/65 214/147/67 204/148/67 
f 204/148/67 202/144/65 212/143/65 
f 215/149/68 213/145/66 203/146/66 
f 203/146/66 205/150/68 215/149/68 
f 216/151/69 215/149/68 205/150/68 
f 205/150/68 206/152/69 216/151/69 
# 24 faces

