# 3ds Max Wavefront OBJ Exporter v0.97b - (c)2007 guruware
# File Created: 22.11.2013 11:12:54

mtllib track_90_corner.mtl

#
# object Object001
#

v  -0.1967 -0.0955 0.4747
v  -0.1906 -0.0955 0.4039
v  -0.1967 -0.1368 0.4747
v  0.2006 -0.0955 0.4381
v  0.2006 -0.1368 0.4381
v  0.1944 -0.0955 0.5089
v  0.1944 -0.1368 0.5089
v  -0.1906 -0.1368 0.4039
# 8 vertices

vn -0.9962 0.0000 -0.0872
vn 0.0872 0.0000 -0.9962
vn 0.9962 0.0000 0.0872
vn -0.0872 0.0000 0.9962
vn 0.0000 1.0000 -0.0000
# 5 vertex normals

vt 0.2047 0.7545 0.0000
vt 0.6742 0.7545 0.0000
vt 0.2047 0.8839 0.0000
vt 0.6742 0.8839 0.0000
vt 0.1997 0.8815 0.0000
vt 0.1997 0.7545 0.0000
vt 0.6842 0.7545 0.0000
vt 0.6842 0.8815 0.0000
# 8 texture coords

g Object001
usemtl tracks
f 1/1/1 2/2/1 3/3/1 
f 2/1/2 4/2/2 5/4/2 
f 4/1/3 6/2/3 7/4/3 
f 6/1/4 1/2/4 3/4/4 
f 6/5/5 4/6/5 2/7/5 
f 2/2/1 8/4/1 3/3/1 
f 8/3/2 2/1/2 5/4/2 
f 5/3/3 4/1/3 7/4/3 
f 7/3/4 6/1/4 3/4/4 
f 1/8/5 6/5/5 2/7/5 
# 10 faces

#
# object Circle001
#

v  0.5000 -0.0028 0.1559
v  0.5000 -0.0028 0.1241
v  0.4138 -0.0028 0.1339
v  0.4212 -0.0028 0.1651
v  0.3347 -0.0028 0.1622
v  0.3488 -0.0028 0.1910
v  0.2649 -0.0028 0.2067
v  0.2849 -0.0028 0.2316
v  0.2067 -0.0028 0.2649
v  0.2316 -0.0028 0.2849
v  0.1622 -0.0028 0.3347
v  0.1910 -0.0028 0.3488
v  0.1339 -0.0028 0.4138
v  0.1651 -0.0028 0.4212
v  0.1241 -0.0028 0.5000
v  0.1559 -0.0028 0.5000
v  0.5000 -0.0957 0.1241
v  0.4138 -0.0957 0.1339
v  0.4212 -0.0957 0.1651
v  0.5000 -0.0957 0.1559
v  0.3347 -0.0957 0.1622
v  0.3488 -0.0957 0.1910
v  0.2649 -0.0957 0.2067
v  0.2849 -0.0957 0.2316
v  0.2067 -0.0957 0.2649
v  0.2316 -0.0957 0.2849
v  0.1622 -0.0957 0.3347
v  0.1910 -0.0957 0.3488
v  0.1339 -0.0957 0.4138
v  0.1651 -0.0957 0.4212
v  0.1241 -0.0957 0.5000
v  0.1559 -0.0957 0.5000
# 32 vertices

vn 0.0000 1.0000 -0.0000
vn -0.0000 1.0000 0.0000
vn 0.0000 1.0000 0.0000
vn -0.0000 1.0000 -0.0000
vn -0.1135 -0.0000 -0.9935
vn -0.2267 0.0000 -0.9740
vn -0.2267 -0.0000 -0.9740
vn -0.1135 0.0000 -0.9935
vn 0.2278 -0.0000 0.9737
vn 0.1159 -0.0000 0.9933
vn 0.2278 0.0000 0.9737
vn -0.4395 0.0000 -0.8982
vn 0.4395 0.0000 0.8982
vn -0.6257 0.0000 -0.7801
vn 0.6257 0.0000 0.7801
vn -0.7801 0.0000 -0.6257
vn 0.7801 -0.0000 0.6257
vn -0.8982 0.0000 -0.4395
vn 0.8982 -0.0000 0.4395
vn 0.8982 0.0000 0.4395
vn -0.9740 0.0000 -0.2267
vn 0.9737 0.0000 0.2278
vn -0.9935 -0.0000 -0.1135
vn -0.9935 0.0000 -0.1135
vn 0.9933 0.0000 0.1159
# 25 vertex normals

vt 0.6407 0.6224 1.5000
vt 0.6386 0.5255 1.5000
vt 0.5744 0.5242 1.5000
vt 0.5684 0.6221 1.5000
vt 0.5141 0.5243 1.5000
vt 0.5136 0.6235 1.5000
vt 0.4581 0.5236 1.5000
vt 0.4554 0.6237 1.5000
vt 0.3964 0.5237 1.5000
vt 0.3960 0.6237 1.5000
vt 0.3296 0.5234 1.5000
vt 0.3377 0.6235 1.5000
vt 0.2822 0.5236 1.5000
vt 0.2835 0.6238 1.5000
vt 0.2188 0.5235 1.5000
vt 0.2181 0.6233 1.5000
vt 0.2203 0.3805 0.0000
vt 0.2820 0.3805 0.0000
vt 0.2820 0.4936 0.0000
vt 0.2203 0.4936 0.0000
vt 0.5776 0.3805 0.0000
vt 0.6392 0.3805 0.0000
vt 0.6392 0.4935 0.0000
vt 0.5776 0.4935 0.0000
vt 0.3417 0.3805 0.0000
vt 0.3417 0.4936 0.0000
vt 0.5178 0.3805 0.0000
vt 0.5178 0.4935 0.0000
vt 0.4005 0.3805 0.0000
vt 0.4005 0.4936 0.0000
vt 0.4590 0.3805 0.0000
vt 0.4590 0.4935 0.0000
vt 0.4591 0.3805 0.0000
vt 0.4591 0.4936 0.0000
vt 0.4005 0.4935 0.0000
vt 0.5179 0.3805 0.0000
vt 0.5179 0.4936 0.0000
vt 0.3417 0.4935 0.0000
vt 0.5776 0.4936 0.0000
vt 0.2820 0.4935 0.0000
vt 0.6392 0.4936 0.0000
vt 0.2203 0.4935 0.0000
# 42 texture coords

g Circle001
usemtl tracks
f 9/9/6 10/10/6 11/11/6 
f 12/12/7 9/9/6 11/11/6 
f 12/12/7 11/11/6 13/13/8 
f 14/14/8 12/12/7 13/13/8 
f 14/14/8 13/13/8 15/15/8 
f 16/16/6 14/14/8 15/15/8 
f 16/16/6 15/15/8 17/17/6 
f 18/18/6 16/16/6 17/17/6 
f 18/18/6 17/17/6 19/19/7 
f 20/20/7 18/18/6 19/19/7 
f 20/20/7 19/19/7 21/21/9 
f 22/22/9 20/20/7 21/21/9 
f 22/22/9 21/21/9 23/23/9 
f 24/24/6 22/22/9 23/23/9 
f 25/25/10 26/26/11 11/27/12 
f 11/27/12 10/28/13 25/25/10 
f 27/29/14 28/30/15 9/31/15 
f 9/31/15 12/32/16 27/29/14 
f 26/26/11 29/33/17 13/34/17 
f 13/34/17 11/27/12 26/26/11 
f 30/35/18 27/29/14 12/32/16 
f 12/32/16 14/36/18 30/35/18 
f 29/33/17 31/37/19 15/38/19 
f 15/38/19 13/34/17 29/33/17 
f 32/39/20 30/35/18 14/36/18 
f 14/36/18 16/40/20 32/39/20 
f 31/37/19 33/41/21 17/42/21 
f 17/42/21 15/38/19 31/37/19 
f 34/37/22 32/39/20 16/40/20 
f 16/40/20 18/43/22 34/37/22 
f 33/41/21 35/44/23 19/45/23 
f 19/45/23 17/42/21 33/41/21 
f 36/33/24 34/37/22 18/43/22 
f 18/43/22 20/46/25 36/33/24 
f 35/44/23 37/29/26 21/47/26 
f 21/47/26 19/45/23 35/44/23 
f 38/26/27 36/33/24 20/46/25 
f 20/46/25 22/48/27 38/26/27 
f 37/29/26 39/30/28 23/49/29 
f 23/49/29 21/47/26 37/29/26 
f 40/25/30 38/26/27 22/48/27 
f 22/48/27 24/50/30 40/25/30 
# 42 faces

#
# object Circle002
#

v  0.5000 -0.0028 -0.1241
v  0.5000 -0.0028 -0.1559
v  0.3497 -0.0028 -0.1387
v  0.3570 -0.0028 -0.1075
v  0.2117 -0.0028 -0.0893
v  0.2257 -0.0028 -0.0605
v  0.0898 -0.0028 -0.0118
v  0.1099 -0.0028 0.0132
v  -0.0118 -0.0028 0.0898
v  0.0132 -0.0028 0.1099
v  -0.0893 -0.0028 0.2117
v  -0.0605 -0.0028 0.2257
v  -0.1387 -0.0028 0.3497
v  -0.1075 -0.0028 0.3570
v  -0.1559 -0.0028 0.5000
v  -0.1241 -0.0028 0.5000
v  0.5000 -0.0957 -0.1559
v  0.3497 -0.0957 -0.1387
v  0.3570 -0.0957 -0.1075
v  0.5000 -0.0957 -0.1241
v  0.2117 -0.0957 -0.0893
v  0.2257 -0.0957 -0.0605
v  0.0898 -0.0957 -0.0118
v  0.1099 -0.0957 0.0132
v  -0.0118 -0.0957 0.0898
v  0.0132 -0.0957 0.1099
v  -0.0893 -0.0957 0.2117
v  -0.0605 -0.0957 0.2257
v  -0.1387 -0.0957 0.3497
v  -0.1075 -0.0957 0.3570
v  -0.1559 -0.0957 0.5000
v  -0.1241 -0.0957 0.5000
# 32 vertices

vn 0.0000 1.0000 -0.0000
vn -0.0000 1.0000 0.0000
vn 0.0000 1.0000 0.0000
vn -0.1140 -0.0000 -0.9935
vn -0.2269 -0.0000 -0.9739
vn 0.2276 0.0000 0.9738
vn 0.1153 0.0000 0.9933
vn -0.4395 -0.0000 -0.8982
vn 0.4395 0.0000 0.8982
vn -0.6257 -0.0000 -0.7801
vn 0.6257 0.0000 0.7801
vn -0.7801 0.0000 -0.6257
vn 0.7801 0.0000 0.6257
vn 0.7801 -0.0000 0.6257
vn -0.8982 0.0000 -0.4395
vn 0.8982 -0.0000 0.4395
vn -0.9739 0.0000 -0.2269
vn 0.9738 -0.0000 0.2276
vn 0.9738 0.0000 0.2276
vn -0.9935 0.0000 -0.1140
vn 0.9933 0.0000 0.1153
vn 0.9933 -0.0000 0.1153
# 22 vertex normals

vt 0.6369 0.6219 0.0000
vt 0.6359 0.5241 0.0000
vt 0.5850 0.5247 0.0000
vt 0.5847 0.6212 0.0000
vt 0.5245 0.5249 0.0000
vt 0.5235 0.6211 0.0000
vt 0.4601 0.5249 0.0000
vt 0.4585 0.6208 0.0000
vt 0.3944 0.5249 0.0000
vt 0.3960 0.6208 0.0000
vt 0.3300 0.5248 0.0000
vt 0.3311 0.6218 0.0000
vt 0.2694 0.5247 0.0000
vt 0.2700 0.6220 0.0000
vt 0.2153 0.5248 0.0000
vt 0.2154 0.6222 0.0000
vt 0.2244 0.3810 0.0000
vt 0.2857 0.3810 0.0000
vt 0.2857 0.4928 0.0000
vt 0.2244 0.4928 0.0000
vt 0.5800 0.3810 0.0000
vt 0.6413 0.3810 0.0000
vt 0.6413 0.4927 0.0000
vt 0.5800 0.4927 0.0000
vt 0.3452 0.3810 0.0000
vt 0.3452 0.4928 0.0000
vt 0.5205 0.3810 0.0000
vt 0.5205 0.4927 0.0000
vt 0.4037 0.3810 0.0000
vt 0.4037 0.4928 0.0000
vt 0.4620 0.3810 0.0000
vt 0.4620 0.4927 0.0000
vt 0.4620 0.4928 0.0000
vt 0.4038 0.3810 0.0000
vt 0.4038 0.4927 0.0000
vt 0.5205 0.4928 0.0000
vt 0.3453 0.3810 0.0000
vt 0.3453 0.4927 0.0000
vt 0.5799 0.3810 0.0000
vt 0.5799 0.4928 0.0000
vt 0.2859 0.3810 0.0000
vt 0.2859 0.4927 0.0000
vt 0.6413 0.4928 0.0000
vt 0.2246 0.3810 0.0000
vt 0.2246 0.4927 0.0000
# 45 texture coords

g Circle002
usemtl tracks
f 41/51/31 42/52/31 43/53/31 
f 44/54/31 41/51/31 43/53/31 
f 44/54/31 43/53/31 45/55/31 
f 46/56/31 44/54/31 45/55/31 
f 46/56/31 45/55/31 47/57/31 
f 48/58/31 46/56/31 47/57/31 
f 48/58/31 47/57/31 49/59/32 
f 50/60/32 48/58/31 49/59/32 
f 50/60/32 49/59/32 51/61/32 
f 52/62/33 50/60/32 51/61/32 
f 52/62/33 51/61/32 53/63/33 
f 54/64/33 52/62/33 53/63/33 
f 54/64/33 53/63/33 55/65/31 
f 56/66/31 54/64/33 55/65/31 
f 57/67/34 58/68/35 43/69/35 
f 43/69/35 42/70/34 57/67/34 
f 59/71/36 60/72/37 41/73/37 
f 41/73/37 44/74/36 59/71/36 
f 58/68/35 61/75/38 45/76/38 
f 45/76/38 43/69/35 58/68/35 
f 62/77/39 59/71/36 44/74/36 
f 44/74/36 46/78/39 62/77/39 
f 61/75/38 63/79/40 47/80/40 
f 47/80/40 45/76/38 61/75/38 
f 64/81/41 62/77/39 46/78/39 
f 46/78/39 48/82/41 64/81/41 
f 63/79/40 65/81/42 49/83/42 
f 49/83/42 47/80/40 63/79/40 
f 66/84/43 64/81/41 48/82/41 
f 48/82/41 50/85/44 66/84/43 
f 65/81/42 67/77/45 51/86/45 
f 51/86/45 49/83/42 65/81/42 
f 68/87/46 66/84/43 50/85/44 
f 50/85/44 52/88/46 68/87/46 
f 67/77/45 69/89/47 53/90/47 
f 53/90/47 51/86/45 67/77/45 
f 70/91/48 68/87/46 52/88/46 
f 52/88/46 54/92/49 70/91/48 
f 69/89/47 71/72/50 55/93/50 
f 55/93/50 53/90/47 69/89/47 
f 72/94/51 70/91/48 54/92/49 
f 54/92/49 56/95/52 72/94/51 
# 42 faces

#
# object Object002
#

v  -0.1665 -0.0955 0.2953
v  -0.1421 -0.0955 0.2284
v  -0.1665 -0.1368 0.2953
v  0.2268 -0.0955 0.3627
v  0.2268 -0.1368 0.3627
v  0.2025 -0.0955 0.4295
v  0.2025 -0.1368 0.4295
v  -0.1421 -0.1368 0.2284
# 8 vertices

vn -0.9397 0.0000 -0.3420
vn 0.3420 0.0000 -0.9397
vn 0.9397 0.0000 0.3420
vn -0.3420 0.0000 0.9397
vn 0.0000 1.0000 -0.0000
# 5 vertex normals

vt 0.2047 0.7545 0.0000
vt 0.6742 0.7545 0.0000
vt 0.2047 0.8839 0.0000
vt 0.6742 0.8839 0.0000
vt 0.1997 0.8815 0.0000
vt 0.1997 0.7545 0.0000
vt 0.6842 0.7545 0.0000
vt 0.6842 0.8815 0.0000
# 8 texture coords

g Object002
usemtl tracks
f 73/96/53 74/97/53 75/98/53 
f 74/96/54 76/97/54 77/99/54 
f 76/96/55 78/97/55 79/99/55 
f 78/96/56 73/97/56 75/99/56 
f 78/100/57 76/101/57 74/102/57 
f 74/97/53 80/99/53 75/98/53 
f 80/98/54 74/96/54 77/99/54 
f 77/98/55 76/96/55 79/99/55 
f 79/98/56 78/96/56 75/99/56 
f 73/103/57 78/100/57 74/102/57 
# 10 faces

#
# object Object003
#

v  -0.0741 -0.0955 0.1043
v  -0.0308 -0.0955 0.0479
v  -0.0741 -0.1368 0.1043
v  0.2807 -0.0955 0.2869
v  0.2807 -0.1368 0.2869
v  0.2374 -0.0955 0.3433
v  0.2374 -0.1368 0.3433
v  -0.0308 -0.1368 0.0479
# 8 vertices

vn -0.7934 0.0000 -0.6088
vn 0.6088 0.0000 -0.7934
vn 0.7934 0.0000 0.6088
vn -0.6088 0.0000 0.7934
vn 0.0000 1.0000 -0.0000
# 5 vertex normals

vt 0.2047 0.7545 0.0000
vt 0.6742 0.7545 0.0000
vt 0.2047 0.8839 0.0000
vt 0.6742 0.8839 0.0000
vt 0.1997 0.8815 0.0000
vt 0.1997 0.7545 0.0000
vt 0.6842 0.7545 0.0000
vt 0.6842 0.8815 0.0000
# 8 texture coords

g Object003
usemtl tracks
f 81/104/58 82/105/58 83/106/58 
f 82/104/59 84/105/59 85/107/59 
f 84/104/60 86/105/60 87/107/60 
f 86/104/61 81/105/61 83/107/61 
f 86/108/62 84/109/62 82/110/62 
f 82/105/58 88/107/58 83/106/58 
f 88/106/59 82/104/59 85/107/59 
f 85/106/60 84/104/60 87/107/60 
f 87/106/61 86/104/61 83/107/61 
f 81/111/62 86/108/62 82/110/62 
# 10 faces

#
# object Object004
#

v  0.0479 -0.0955 -0.0308
v  0.1043 -0.0955 -0.0741
v  0.0479 -0.1368 -0.0308
v  0.3433 -0.0955 0.2374
v  0.3433 -0.1368 0.2374
v  0.2869 -0.0955 0.2807
v  0.2869 -0.1368 0.2807
v  0.1043 -0.1368 -0.0741
# 8 vertices

vn -0.6088 0.0000 -0.7934
vn 0.7934 0.0000 -0.6088
vn 0.6088 0.0000 0.7934
vn -0.7934 0.0000 0.6088
vn 0.0000 1.0000 -0.0000
# 5 vertex normals

vt 0.2047 0.7545 0.0000
vt 0.6742 0.7545 0.0000
vt 0.2047 0.8839 0.0000
vt 0.6742 0.8839 0.0000
vt 0.1997 0.8815 0.0000
vt 0.1997 0.7545 0.0000
vt 0.6842 0.7545 0.0000
vt 0.6842 0.8815 0.0000
# 8 texture coords

g Object004
usemtl tracks
f 89/112/63 90/113/63 91/114/63 
f 90/112/64 92/113/64 93/115/64 
f 92/112/65 94/113/65 95/115/65 
f 94/112/66 89/113/66 91/115/66 
f 94/116/67 92/117/67 90/118/67 
f 90/113/63 96/115/63 91/114/63 
f 96/114/64 90/112/64 93/115/64 
f 93/114/65 92/112/65 95/115/65 
f 95/114/66 94/112/66 91/115/66 
f 89/119/67 94/116/67 90/118/67 
# 10 faces

#
# object Object005
#

v  0.2284 -0.0955 -0.1421
v  0.2953 -0.0955 -0.1665
v  0.2284 -0.1368 -0.1421
v  0.4295 -0.0955 0.2025
v  0.4295 -0.1368 0.2025
v  0.3627 -0.0955 0.2268
v  0.3627 -0.1368 0.2268
v  0.2953 -0.1368 -0.1665
# 8 vertices

vn -0.3420 0.0000 -0.9397
vn 0.9397 0.0000 -0.3420
vn 0.3420 0.0000 0.9397
vn -0.9397 0.0000 0.3420
vn 0.0000 1.0000 -0.0000
# 5 vertex normals

vt 0.2047 0.7545 0.0000
vt 0.6742 0.7545 0.0000
vt 0.2047 0.8839 0.0000
vt 0.6742 0.8839 0.0000
vt 0.1997 0.8815 0.0000
vt 0.1997 0.7545 0.0000
vt 0.6842 0.7545 0.0000
vt 0.6842 0.8815 0.0000
# 8 texture coords

g Object005
usemtl tracks
f 97/120/68 98/121/68 99/122/68 
f 98/120/69 100/121/69 101/123/69 
f 100/120/70 102/121/70 103/123/70 
f 102/120/71 97/121/71 99/123/71 
f 102/124/72 100/125/72 98/126/72 
f 98/121/68 104/123/68 99/122/68 
f 104/122/69 98/120/69 101/123/69 
f 101/122/70 100/120/70 103/123/70 
f 103/122/71 102/120/71 99/123/71 
f 97/127/72 102/124/72 98/126/72 
# 10 faces

#
# object Object006
#

v  0.4039 -0.0955 -0.1906
v  0.4747 -0.0955 -0.1967
v  0.4039 -0.1368 -0.1906
v  0.5089 -0.0955 0.1944
v  0.5089 -0.1368 0.1944
v  0.4381 -0.0955 0.2006
v  0.4381 -0.1368 0.2006
v  0.4747 -0.1368 -0.1967
# 8 vertices

vn -0.0872 0.0000 -0.9962
vn 0.9962 0.0000 -0.0872
vn 0.0872 0.0000 0.9962
vn -0.9962 0.0000 0.0872
vn 0.0000 1.0000 -0.0000
# 5 vertex normals

vt 0.2047 0.7545 0.0000
vt 0.6742 0.7545 0.0000
vt 0.2047 0.8839 0.0000
vt 0.6742 0.8839 0.0000
vt 0.1997 0.8815 0.0000
vt 0.1997 0.7545 0.0000
vt 0.6842 0.7545 0.0000
vt 0.6842 0.8815 0.0000
# 8 texture coords

g Object006
usemtl tracks
f 105/128/73 106/129/73 107/130/73 
f 106/128/74 108/129/74 109/131/74 
f 108/128/75 110/129/75 111/131/75 
f 110/128/76 105/129/76 107/131/76 
f 110/132/77 108/133/77 106/134/77 
f 106/129/73 112/131/73 107/130/73 
f 112/130/74 106/128/74 109/131/74 
f 109/130/75 108/128/75 111/131/75 
f 111/130/76 110/128/76 107/131/76 
f 105/135/77 110/132/77 106/134/77 
# 10 faces

