info face="Utsaah" size=22 bold=1 italic=0 charset="" unicode=1 stretchH=100 smooth=1 aa=1 padding=0,0,0,0 spacing=1,1 outline=1
common lineHeight=22 base=15 scaleW=256 scaleH=256 pages=1 packed=0 alphaChnl=1 redChnl=0 greenChnl=0 blueChnl=0
page id=0 file="uth_0.png"
chars count=191
char id=32   x=146   y=114   width=5     height=3     xoffset=-2    yoffset=20    xadvance=4     page=0  chnl=15
char id=33   x=138   y=90    width=5     height=13    xoffset=0     yoffset=3     xadvance=5     page=0  chnl=15
char id=34   x=7     y=116   width=9     height=6     xoffset=-1    yoffset=3     xadvance=7     page=0  chnl=15
char id=35   x=200   y=48    width=12    height=13    xoffset=-2    yoffset=3     xadvance=8     page=0  chnl=15
char id=36   x=240   y=17    width=10    height=15    xoffset=-1    yoffset=2     xadvance=8     page=0  chnl=15
char id=37   x=126   y=34    width=15    height=13    xoffset=-1    yoffset=3     xadvance=13    page=0  chnl=15
char id=38   x=28    y=48    width=13    height=13    xoffset=-1    yoffset=3     xadvance=10    page=0  chnl=15
char id=39   x=33    y=116   width=5     height=6     xoffset=-1    yoffset=3     xadvance=3     page=0  chnl=15
char id=40   x=198   y=17    width=7     height=16    xoffset=-1    yoffset=3     xadvance=5     page=0  chnl=15
char id=41   x=190   y=17    width=7     height=16    xoffset=-1    yoffset=3     xadvance=5     page=0  chnl=15
char id=42   x=217   y=101   width=8     height=7     xoffset=-1    yoffset=3     xadvance=6     page=0  chnl=15
char id=43   x=101   y=104   width=10    height=10    xoffset=-1    yoffset=5     xadvance=8     page=0  chnl=15
char id=44   x=26    y=116   width=6     height=6     xoffset=-1    yoffset=12    xadvance=4     page=0  chnl=15
char id=45   x=78    y=115   width=7     height=4     xoffset=-1    yoffset=9     xadvance=5     page=0  chnl=15
char id=46   x=100   y=115   width=6     height=4     xoffset=-1    yoffset=12    xadvance=4     page=0  chnl=15
char id=47   x=52    y=90    width=8     height=13    xoffset=-2    yoffset=3     xadvance=4     page=0  chnl=15
char id=48   x=223   y=76    width=10    height=13    xoffset=-1    yoffset=3     xadvance=8     page=0  chnl=15
char id=49   x=43    y=90    width=8     height=13    xoffset=-1    yoffset=3     xadvance=8     page=0  chnl=15
char id=50   x=234   y=76    width=10    height=13    xoffset=-1    yoffset=3     xadvance=8     page=0  chnl=15
char id=51   x=245   y=75    width=10    height=13    xoffset=-1    yoffset=3     xadvance=8     page=0  chnl=15
char id=52   x=187   y=48    width=12    height=13    xoffset=-2    yoffset=3     xadvance=8     page=0  chnl=15
char id=53   x=0     y=91    width=10    height=13    xoffset=-1    yoffset=3     xadvance=8     page=0  chnl=15
char id=54   x=80    y=76    width=10    height=13    xoffset=-1    yoffset=3     xadvance=8     page=0  chnl=15
char id=55   x=190   y=76    width=10    height=13    xoffset=-1    yoffset=3     xadvance=8     page=0  chnl=15
char id=56   x=135   y=76    width=10    height=13    xoffset=-1    yoffset=3     xadvance=8     page=0  chnl=15
char id=57   x=146   y=76    width=10    height=13    xoffset=-1    yoffset=3     xadvance=8     page=0  chnl=15
char id=58   x=112   y=104   width=5     height=10    xoffset=0     yoffset=6     xadvance=5     page=0  chnl=15
char id=59   x=144   y=90    width=5     height=12    xoffset=0     yoffset=6     xadvance=5     page=0  chnl=15
char id=60   x=129   y=104   width=10    height=9     xoffset=-1    yoffset=5     xadvance=8     page=0  chnl=15
char id=61   x=184   y=101   width=11    height=7     xoffset=-1    yoffset=6     xadvance=8     page=0  chnl=15
char id=62   x=118   y=104   width=10    height=9     xoffset=-1    yoffset=5     xadvance=8     page=0  chnl=15
char id=63   x=0     y=63    width=11    height=13    xoffset=-1    yoffset=3     xadvance=9     page=0  chnl=15
char id=64   x=0     y=0     width=17    height=16    xoffset=-1    yoffset=3     xadvance=14    page=0  chnl=15
char id=65   x=142   y=34    width=14    height=13    xoffset=-2    yoffset=3     xadvance=10    page=0  chnl=15
char id=66   x=83    y=48    width=12    height=13    xoffset=-1    yoffset=3     xadvance=10    page=0  chnl=15
char id=67   x=70    y=48    width=12    height=13    xoffset=-1    yoffset=3     xadvance=10    page=0  chnl=15
char id=68   x=109   y=48    width=12    height=13    xoffset=-1    yoffset=3     xadvance=10    page=0  chnl=15
char id=69   x=226   y=48    width=12    height=13    xoffset=-1    yoffset=3     xadvance=10    page=0  chnl=15
char id=70   x=12    y=77    width=11    height=13    xoffset=-1    yoffset=3     xadvance=9     page=0  chnl=15
char id=71   x=0     y=49    width=13    height=13    xoffset=-1    yoffset=3     xadvance=11    page=0  chnl=15
char id=72   x=174   y=48    width=12    height=13    xoffset=-1    yoffset=3     xadvance=10    page=0  chnl=15
char id=73   x=118   y=90    width=6     height=13    xoffset=-1    yoffset=3     xadvance=4     page=0  chnl=15
char id=74   x=157   y=76    width=10    height=13    xoffset=-1    yoffset=3     xadvance=8     page=0  chnl=15
char id=75   x=202   y=34    width=13    height=13    xoffset=-1    yoffset=3     xadvance=10    page=0  chnl=15
char id=76   x=96    y=62    width=11    height=13    xoffset=-1    yoffset=3     xadvance=9     page=0  chnl=15
char id=77   x=172   y=34    width=14    height=13    xoffset=-1    yoffset=3     xadvance=12    page=0  chnl=15
char id=78   x=122   y=48    width=12    height=13    xoffset=-1    yoffset=3     xadvance=10    page=0  chnl=15
char id=79   x=216   y=34    width=13    height=13    xoffset=-1    yoffset=3     xadvance=11    page=0  chnl=15
char id=80   x=96    y=48    width=12    height=13    xoffset=-1    yoffset=3     xadvance=10    page=0  chnl=15
char id=81   x=0     y=34    width=14    height=14    xoffset=-1    yoffset=3     xadvance=11    page=0  chnl=15
char id=82   x=230   y=33    width=13    height=13    xoffset=-1    yoffset=3     xadvance=10    page=0  chnl=15
char id=83   x=135   y=48    width=12    height=13    xoffset=-1    yoffset=3     xadvance=10    page=0  chnl=15
char id=84   x=72    y=62    width=11    height=13    xoffset=-1    yoffset=3     xadvance=9     page=0  chnl=15
char id=85   x=213   y=48    width=12    height=13    xoffset=-1    yoffset=3     xadvance=10    page=0  chnl=15
char id=86   x=14    y=49    width=13    height=13    xoffset=-2    yoffset=3     xadvance=10    page=0  chnl=15
char id=87   x=44    y=34    width=17    height=13    xoffset=-2    yoffset=3     xadvance=14    page=0  chnl=15
char id=88   x=157   y=34    width=14    height=13    xoffset=-2    yoffset=3     xadvance=10    page=0  chnl=15
char id=89   x=148   y=48    width=12    height=13    xoffset=-1    yoffset=3     xadvance=10    page=0  chnl=15
char id=90   x=161   y=48    width=12    height=13    xoffset=-2    yoffset=3     xadvance=9     page=0  chnl=15
char id=91   x=182   y=17    width=7     height=16    xoffset=-1    yoffset=3     xadvance=5     page=0  chnl=15
char id=92   x=61    y=90    width=8     height=13    xoffset=-2    yoffset=3     xadvance=4     page=0  chnl=15
char id=93   x=139   y=17    width=8     height=16    xoffset=-2    yoffset=3     xadvance=5     page=0  chnl=15
char id=94   x=173   y=101   width=10    height=8     xoffset=-1    yoffset=3     xadvance=8     page=0  chnl=15
char id=95   x=127   y=114   width=12    height=3     xoffset=-2    yoffset=16    xadvance=8     page=0  chnl=15
char id=96   x=107   y=115   width=6     height=4     xoffset=-1    yoffset=3     xadvance=5     page=0  chnl=15
char id=97   x=46    y=104   width=10    height=10    xoffset=-1    yoffset=6     xadvance=8     page=0  chnl=15
char id=98   x=244   y=33    width=11    height=13    xoffset=-1    yoffset=3     xadvance=9     page=0  chnl=15
char id=99   x=35    y=105   width=10    height=10    xoffset=-1    yoffset=6     xadvance=8     page=0  chnl=15
char id=100  x=12    y=63    width=11    height=13    xoffset=-1    yoffset=3     xadvance=9     page=0  chnl=15
char id=101  x=24    y=105   width=10    height=10    xoffset=-1    yoffset=6     xadvance=8     page=0  chnl=15
char id=102  x=33    y=91    width=9     height=13    xoffset=-2    yoffset=3     xadvance=5     page=0  chnl=15
char id=103  x=48    y=62    width=11    height=13    xoffset=-1    yoffset=6     xadvance=9     page=0  chnl=15
char id=104  x=60    y=62    width=11    height=13    xoffset=-1    yoffset=3     xadvance=9     page=0  chnl=15
char id=105  x=111   y=90    width=6     height=13    xoffset=-1    yoffset=3     xadvance=4     page=0  chnl=15
char id=106  x=166   y=17    width=7     height=16    xoffset=-2    yoffset=3     xadvance=4     page=0  chnl=15
char id=107  x=168   y=76    width=10    height=13    xoffset=-1    yoffset=3     xadvance=8     page=0  chnl=15
char id=108  x=104   y=90    width=6     height=13    xoffset=-1    yoffset=3     xadvance=4     page=0  chnl=15
char id=109  x=166   y=90    width=15    height=10    xoffset=-1    yoffset=6     xadvance=13    page=0  chnl=15
char id=110  x=222   y=90    width=11    height=10    xoffset=-1    yoffset=6     xadvance=9     page=0  chnl=15
char id=111  x=198   y=90    width=11    height=10    xoffset=-1    yoffset=6     xadvance=9     page=0  chnl=15
char id=112  x=108   y=62    width=11    height=13    xoffset=-1    yoffset=6     xadvance=9     page=0  chnl=15
char id=113  x=120   y=62    width=11    height=13    xoffset=-1    yoffset=6     xadvance=9     page=0  chnl=15
char id=114  x=246   y=89    width=8     height=10    xoffset=-1    yoffset=6     xadvance=6     page=0  chnl=15
char id=115  x=68    y=104   width=10    height=10    xoffset=-1    yoffset=6     xadvance=8     page=0  chnl=15
char id=116  x=88    y=90    width=7     height=13    xoffset=-1    yoffset=3     xadvance=5     page=0  chnl=15
char id=117  x=0     y=105   width=11    height=10    xoffset=-1    yoffset=6     xadvance=9     page=0  chnl=15
char id=118  x=234   y=90    width=11    height=10    xoffset=-2    yoffset=6     xadvance=8     page=0  chnl=15
char id=119  x=182   y=90    width=15    height=10    xoffset=-2    yoffset=6     xadvance=11    page=0  chnl=15
char id=120  x=79    y=104   width=10    height=10    xoffset=-1    yoffset=6     xadvance=8     page=0  chnl=15
char id=121  x=179   y=76    width=10    height=13    xoffset=-1    yoffset=6     xadvance=8     page=0  chnl=15
char id=122  x=210   y=90    width=11    height=10    xoffset=-2    yoffset=6     xadvance=7     page=0  chnl=15
char id=123  x=130   y=17    width=8     height=16    xoffset=-1    yoffset=3     xadvance=6     page=0  chnl=15
char id=124  x=219   y=17    width=5     height=16    xoffset=-1    yoffset=3     xadvance=4     page=0  chnl=15
char id=125  x=148   y=17    width=8     height=16    xoffset=-1    yoffset=3     xadvance=6     page=0  chnl=15
char id=126  x=39    y=116   width=11    height=5     xoffset=-1    yoffset=7     xadvance=8     page=0  chnl=15
char id=160  x=140   y=114   width=5     height=3     xoffset=-2    yoffset=20    xadvance=4     page=0  chnl=15
char id=161  x=132   y=90    width=5     height=13    xoffset=0     yoffset=6     xadvance=5     page=0  chnl=15
char id=162  x=99    y=17    width=10    height=16    xoffset=-1    yoffset=3     xadvance=8     page=0  chnl=15
char id=163  x=24    y=63    width=11    height=13    xoffset=-2    yoffset=3     xadvance=8     page=0  chnl=15
char id=164  x=57    y=104   width=10    height=10    xoffset=-1    yoffset=5     xadvance=8     page=0  chnl=15
char id=165  x=36    y=62    width=11    height=13    xoffset=-2    yoffset=3     xadvance=8     page=0  chnl=15
char id=166  x=213   y=17    width=5     height=16    xoffset=-1    yoffset=3     xadvance=4     page=0  chnl=15
char id=167  x=88    y=17    width=10    height=16    xoffset=-1    yoffset=3     xadvance=8     page=0  chnl=15
char id=168  x=60    y=115   width=9     height=4     xoffset=-2    yoffset=3     xadvance=5     page=0  chnl=15
char id=169  x=62    y=34    width=15    height=13    xoffset=-2    yoffset=3     xadvance=11    page=0  chnl=15
char id=170  x=226   y=101   width=8     height=7     xoffset=-2    yoffset=3     xadvance=5     page=0  chnl=15
char id=171  x=151   y=101   width=10    height=9     xoffset=-1    yoffset=7     xadvance=8     page=0  chnl=15
char id=172  x=196   y=101   width=10    height=7     xoffset=-1    yoffset=6     xadvance=8     page=0  chnl=15
char id=173  x=70    y=115   width=7     height=4     xoffset=-1    yoffset=9     xadvance=5     page=0  chnl=15
char id=174  x=110   y=34    width=15    height=13    xoffset=-2    yoffset=3     xadvance=11    page=0  chnl=15
char id=175  x=114   y=115   width=12    height=3     xoffset=-2    yoffset=2     xadvance=8     page=0  chnl=15
char id=176  x=17    y=116   width=8     height=6     xoffset=-1    yoffset=4     xadvance=6     page=0  chnl=15
char id=177  x=201   y=76    width=10    height=13    xoffset=-1    yoffset=3     xadvance=8     page=0  chnl=15
char id=178  x=243   y=101   width=7     height=7     xoffset=-1    yoffset=3     xadvance=5     page=0  chnl=15
char id=179  x=235   y=101   width=7     height=7     xoffset=-1    yoffset=3     xadvance=5     page=0  chnl=15
char id=180  x=93    y=115   width=6     height=4     xoffset=0     yoffset=3     xadvance=5     page=0  chnl=15
char id=181  x=212   y=76    width=10    height=13    xoffset=-1    yoffset=6     xadvance=8     page=0  chnl=15
char id=182  x=215   y=0     width=12    height=16    xoffset=-2    yoffset=3     xadvance=8     page=0  chnl=15
char id=183  x=86    y=115   width=6     height=4     xoffset=-1    yoffset=8     xadvance=4     page=0  chnl=15
char id=184  x=51    y=115   width=8     height=5     xoffset=-2    yoffset=14    xadvance=5     page=0  chnl=15
char id=185  x=0     y=116   width=6     height=7     xoffset=-1    yoffset=3     xadvance=5     page=0  chnl=15
char id=186  x=207   y=101   width=9     height=7     xoffset=-2    yoffset=3     xadvance=5     page=0  chnl=15
char id=187  x=140   y=104   width=10    height=9     xoffset=-1    yoffset=7     xadvance=8     page=0  chnl=15
char id=188  x=94    y=34    width=15    height=13    xoffset=-1    yoffset=3     xadvance=12    page=0  chnl=15
char id=189  x=187   y=34    width=14    height=13    xoffset=-1    yoffset=3     xadvance=12    page=0  chnl=15
char id=190  x=78    y=34    width=15    height=13    xoffset=-1    yoffset=3     xadvance=12    page=0  chnl=15
char id=191  x=84    y=62    width=11    height=13    xoffset=-1    yoffset=6     xadvance=9     page=0  chnl=15
char id=192  x=33    y=0     width=14    height=16    xoffset=-2    yoffset=0     xadvance=10    page=0  chnl=15
char id=193  x=48    y=0     width=14    height=16    xoffset=-2    yoffset=0     xadvance=10    page=0  chnl=15
char id=194  x=63    y=0     width=14    height=16    xoffset=-2    yoffset=0     xadvance=10    page=0  chnl=15
char id=195  x=18    y=0     width=14    height=16    xoffset=-2    yoffset=0     xadvance=10    page=0  chnl=15
char id=196  x=78    y=0     width=14    height=16    xoffset=-2    yoffset=0     xadvance=10    page=0  chnl=15
char id=197  x=225   y=17    width=14    height=15    xoffset=-2    yoffset=1     xadvance=10    page=0  chnl=15
char id=198  x=26    y=34    width=17    height=13    xoffset=-2    yoffset=3     xadvance=14    page=0  chnl=15
char id=199  x=13    y=17    width=12    height=16    xoffset=-1    yoffset=3     xadvance=10    page=0  chnl=15
char id=200  x=39    y=17    width=12    height=16    xoffset=-1    yoffset=0     xadvance=10    page=0  chnl=15
char id=201  x=52    y=17    width=12    height=16    xoffset=-1    yoffset=0     xadvance=10    page=0  chnl=15
char id=202  x=228   y=0     width=12    height=16    xoffset=-1    yoffset=0     xadvance=10    page=0  chnl=15
char id=203  x=241   y=0     width=12    height=16    xoffset=-1    yoffset=0     xadvance=10    page=0  chnl=15
char id=204  x=206   y=17    width=6     height=16    xoffset=-1    yoffset=0     xadvance=4     page=0  chnl=15
char id=205  x=174   y=17    width=7     height=16    xoffset=-1    yoffset=0     xadvance=4     page=0  chnl=15
char id=206  x=157   y=17    width=8     height=16    xoffset=-2    yoffset=0     xadvance=4     page=0  chnl=15
char id=207  x=121   y=17    width=8     height=16    xoffset=-2    yoffset=0     xadvance=4     page=0  chnl=15
char id=208  x=56    y=48    width=13    height=13    xoffset=-2    yoffset=3     xadvance=10    page=0  chnl=15
char id=209  x=26    y=17    width=12    height=16    xoffset=-1    yoffset=0     xadvance=10    page=0  chnl=15
char id=210  x=149   y=0     width=13    height=16    xoffset=-1    yoffset=0     xadvance=11    page=0  chnl=15
char id=211  x=107   y=0     width=13    height=16    xoffset=-1    yoffset=0     xadvance=11    page=0  chnl=15
char id=212  x=135   y=0     width=13    height=16    xoffset=-1    yoffset=0     xadvance=11    page=0  chnl=15
char id=213  x=93    y=0     width=13    height=16    xoffset=-1    yoffset=0     xadvance=11    page=0  chnl=15
char id=214  x=121   y=0     width=13    height=16    xoffset=-1    yoffset=0     xadvance=11    page=0  chnl=15
char id=215  x=162   y=101   width=10    height=9     xoffset=-1    yoffset=6     xadvance=8     page=0  chnl=15
char id=216  x=42    y=48    width=13    height=13    xoffset=-1    yoffset=3     xadvance=11    page=0  chnl=15
char id=217  x=0     y=17    width=12    height=16    xoffset=-1    yoffset=0     xadvance=10    page=0  chnl=15
char id=218  x=176   y=0     width=12    height=16    xoffset=-1    yoffset=0     xadvance=10    page=0  chnl=15
char id=219  x=163   y=0     width=12    height=16    xoffset=-1    yoffset=0     xadvance=10    page=0  chnl=15
char id=220  x=202   y=0     width=12    height=16    xoffset=-1    yoffset=0     xadvance=10    page=0  chnl=15
char id=221  x=189   y=0     width=12    height=16    xoffset=-1    yoffset=0     xadvance=10    page=0  chnl=15
char id=222  x=239   y=47    width=12    height=13    xoffset=-1    yoffset=3     xadvance=10    page=0  chnl=15
char id=223  x=132   y=62    width=11    height=13    xoffset=-1    yoffset=3     xadvance=9     page=0  chnl=15
char id=224  x=11    y=91    width=10    height=13    xoffset=-1    yoffset=3     xadvance=8     page=0  chnl=15
char id=225  x=36    y=76    width=10    height=13    xoffset=-1    yoffset=3     xadvance=8     page=0  chnl=15
char id=226  x=47    y=76    width=10    height=13    xoffset=-1    yoffset=3     xadvance=8     page=0  chnl=15
char id=227  x=58    y=76    width=10    height=13    xoffset=-1    yoffset=3     xadvance=8     page=0  chnl=15
char id=228  x=69    y=76    width=10    height=13    xoffset=-1    yoffset=3     xadvance=8     page=0  chnl=15
char id=229  x=15    y=34    width=10    height=14    xoffset=-1    yoffset=2     xadvance=8     page=0  chnl=15
char id=230  x=150   y=90    width=15    height=10    xoffset=-1    yoffset=6     xadvance=13    page=0  chnl=15
char id=231  x=91    y=76    width=10    height=13    xoffset=-1    yoffset=6     xadvance=8     page=0  chnl=15
char id=232  x=22    y=91    width=10    height=13    xoffset=-1    yoffset=3     xadvance=8     page=0  chnl=15
char id=233  x=102   y=76    width=10    height=13    xoffset=-1    yoffset=3     xadvance=8     page=0  chnl=15
char id=234  x=113   y=76    width=10    height=13    xoffset=-1    yoffset=3     xadvance=8     page=0  chnl=15
char id=235  x=124   y=76    width=10    height=13    xoffset=-1    yoffset=3     xadvance=8     page=0  chnl=15
char id=236  x=125   y=90    width=6     height=13    xoffset=-1    yoffset=3     xadvance=4     page=0  chnl=15
char id=237  x=96    y=90    width=7     height=13    xoffset=-1    yoffset=3     xadvance=4     page=0  chnl=15
char id=238  x=79    y=90    width=8     height=13    xoffset=-2    yoffset=3     xadvance=4     page=0  chnl=15
char id=239  x=70    y=90    width=8     height=13    xoffset=-2    yoffset=3     xadvance=4     page=0  chnl=15
char id=240  x=24    y=77    width=11    height=13    xoffset=-1    yoffset=3     xadvance=9     page=0  chnl=15
char id=241  x=144   y=62    width=11    height=13    xoffset=-1    yoffset=3     xadvance=9     page=0  chnl=15
char id=242  x=156   y=62    width=11    height=13    xoffset=-1    yoffset=3     xadvance=9     page=0  chnl=15
char id=243  x=168   y=62    width=11    height=13    xoffset=-1    yoffset=3     xadvance=9     page=0  chnl=15
char id=244  x=180   y=62    width=11    height=13    xoffset=-1    yoffset=3     xadvance=9     page=0  chnl=15
char id=245  x=192   y=62    width=11    height=13    xoffset=-1    yoffset=3     xadvance=9     page=0  chnl=15
char id=246  x=204   y=62    width=11    height=13    xoffset=-1    yoffset=3     xadvance=9     page=0  chnl=15
char id=247  x=90    y=104   width=10    height=10    xoffset=-1    yoffset=5     xadvance=8     page=0  chnl=15
char id=248  x=12    y=105   width=11    height=10    xoffset=-1    yoffset=6     xadvance=9     page=0  chnl=15
char id=249  x=216   y=62    width=11    height=13    xoffset=-1    yoffset=3     xadvance=9     page=0  chnl=15
char id=250  x=228   y=62    width=11    height=13    xoffset=-1    yoffset=3     xadvance=9     page=0  chnl=15
char id=251  x=240   y=61    width=11    height=13    xoffset=-1    yoffset=3     xadvance=9     page=0  chnl=15
char id=252  x=0     y=77    width=11    height=13    xoffset=-1    yoffset=3     xadvance=9     page=0  chnl=15
char id=253  x=77    y=17    width=10    height=16    xoffset=-1    yoffset=3     xadvance=8     page=0  chnl=15
char id=254  x=65    y=17    width=11    height=16    xoffset=-1    yoffset=3     xadvance=9     page=0  chnl=15
char id=255  x=110   y=17    width=10    height=16    xoffset=-1    yoffset=3     xadvance=8     page=0  chnl=15
